(export (version D)
  (design
    (source "C:/Users/Diego/Documents/UTN/6° año - 2017/Proyecto Final/uQA3/hardware/uqa3/esp32w/uQA3.sch")
    (date "19/07/2018 11:51:27")
    (tool "Eeschema 4.0.7")
    (sheet (number 1) (name /) (tstamps /)
      (title_block
        (title Microprocesador)
        (company "Claudio J. Paz")
        (rev)
        (date 2018-07-18)
        (source uQA3.sch)
        (comment (number 1) (value "Cuadrotor aéreo no tripulado"))
        (comment (number 2) (value "de dimensiones pequeñas"))
        (comment (number 3) (value "y estructura abierta uQA3"))
        (comment (number 4) (value 2018))))
    (sheet (number 2) (name /Driver/) (tstamps /5B0F0299/)
      (title_block
        (title "Driver Motores")
        (company "Claudio J. Paz")
        (rev)
        (date 2018-07-18)
        (source Driver.sch)
        (comment (number 1) (value "Cuadrotor aéreo no tripulado "))
        (comment (number 2) (value "de dimensiones pequeñas "))
        (comment (number 3) (value "y estructura abierta uQA3"))
        (comment (number 4) (value 2018))))
    (sheet (number 3) (name /Prog/) (tstamps /5B1164DF/)
      (title_block
        (title "Interfaz USB-UART")
        (company "Claudio J. Paz")
        (rev)
        (date 2018-07-18)
        (source Prog.sch)
        (comment (number 1) (value "Cuadrotor aéreo no tripulado"))
        (comment (number 2) (value "de dimensiones pequeñas"))
        (comment (number 3) (value "y estructura abierta uQA3"))
        (comment (number 4) (value 2018))))
    (sheet (number 4) (name /Power/) (tstamps /5B0EDE2F/)
      (title_block
        (title "Fuente de Alimentación")
        (company "Claudio J. Paz")
        (rev)
        (date 2018-07-18)
        (source Power.sch)
        (comment (number 1) (value "Cuadrotor aéreo no tripulado "))
        (comment (number 2) (value "de dimensiones pequeñas "))
        (comment (number 3) (value "y estructura abierta uQA3"))
        (comment (number 4) (value 2018))))
    (sheet (number 5) (name /Sensors/) (tstamps /5B0F02B8/)
      (title_block
        (title "IMU + Baro + Láser")
        (company "Claudio J. Paz")
        (rev)
        (date 2018-07-18)
        (source Sensors.sch)
        (comment (number 1) (value "Cuadrotor aéreo no tripulado "))
        (comment (number 2) (value "de dimensiones pequeñas "))
        (comment (number 3) (value "y estructura abierta uQA3"))
        (comment (number 4) (value 2018)))))
  (components
    (comp (ref C4)
      (value 0.1uF)
      (footprint Capacitors_SMD:C_0805_HandSoldering)
      (libsource (lib device) (part C))
      (sheetpath (names /) (tstamps /))
      (tstamp 5B0EF981))
    (comp (ref R1)
      (value 10K)
      (footprint Resistors_SMD:R_0805_HandSoldering)
      (libsource (lib device) (part R))
      (sheetpath (names /) (tstamps /))
      (tstamp 5B0F0B73))
    (comp (ref C1)
      (value 0.1uF)
      (footprint Capacitors_SMD:C_0805_HandSoldering)
      (libsource (lib device) (part C))
      (sheetpath (names /) (tstamps /))
      (tstamp 5B0F0C65))
    (comp (ref SW1)
      (value RESET)
      (footprint Buttons_Switches_SMD:SW_SPST_EVQP2)
      (libsource (lib switches) (part SW_Push))
      (sheetpath (names /) (tstamps /))
      (tstamp 5B0F2159))
    (comp (ref SW2)
      (value BOOT)
      (footprint Buttons_Switches_SMD:SW_SPST_EVQP2)
      (libsource (lib switches) (part SW_Push))
      (sheetpath (names /) (tstamps /))
      (tstamp 5B11C541))
    (comp (ref C2)
      (value 0.1uF)
      (footprint Capacitors_SMD:C_0805_HandSoldering)
      (libsource (lib device) (part C))
      (sheetpath (names /) (tstamps /))
      (tstamp 5B11CCE2))
    (comp (ref U1)
      (value ESP-WROOM-32)
      (footprint ESP32:MODULE_ESP-WROOM-32)
      (datasheet "4.53 USD")
      (fields
        (field (name Campo4) ESP-WROOM-32)
        (field (name Campo5) "Module: combo; GPIO, I2C x2, I2S x2, SDIO, SPI x3, UART x3; 19.5dBm")
        (field (name Campo6) Warning)
        (field (name Campo7) "Module Espressif Systems")
        (field (name Campo8) "Olimex LTD"))
      (libsource (lib ESP-WROOM-32) (part ESP-WROOM-32))
      (sheetpath (names /) (tstamps /))
      (tstamp 5B117575))
    (comp (ref J1)
      (value BATERIA)
      (footprint Connectors_Molex:Molex_KK-6410-02_02x2.54mm_Straight)
      (libsource (lib conn) (part Conn_01x02))
      (sheetpath (names /) (tstamps /))
      (tstamp 5B12D37B))
    (comp (ref C3)
      (value 22uF)
      (footprint Capacitors_SMD:C_0805_HandSoldering)
      (libsource (lib device) (part C))
      (sheetpath (names /) (tstamps /))
      (tstamp 5B1332D9))
    (comp (ref R6)
      (value 330)
      (footprint Resistors_SMD:R_0805_HandSoldering)
      (libsource (lib device) (part R))
      (sheetpath (names /) (tstamps /))
      (tstamp 5B15CCF7))
    (comp (ref D1)
      (value LED)
      (footprint LEDs:LED_0805_HandSoldering)
      (libsource (lib device) (part LED))
      (sheetpath (names /) (tstamps /))
      (tstamp 5B15CFE1))
    (comp (ref R7)
      (value 330)
      (footprint Resistors_SMD:R_0805_HandSoldering)
      (libsource (lib device) (part R))
      (sheetpath (names /) (tstamps /))
      (tstamp 5B15E485))
    (comp (ref D4)
      (value LED)
      (footprint LEDs:LED_0805_HandSoldering)
      (libsource (lib device) (part LED))
      (sheetpath (names /) (tstamps /))
      (tstamp 5B15E48B))
    (comp (ref R8)
      (value 330)
      (footprint Resistors_SMD:R_0805_HandSoldering)
      (libsource (lib device) (part R))
      (sheetpath (names /) (tstamps /))
      (tstamp 5B15FE80))
    (comp (ref D5)
      (value LED)
      (footprint LEDs:LED_0805_HandSoldering)
      (libsource (lib device) (part LED))
      (sheetpath (names /) (tstamps /))
      (tstamp 5B15FE86))
    (comp (ref R11)
      (value 330)
      (footprint Resistors_SMD:R_0805_HandSoldering)
      (libsource (lib device) (part R))
      (sheetpath (names /) (tstamps /))
      (tstamp 5B15FE8D))
    (comp (ref D6)
      (value LED)
      (footprint LEDs:LED_0805_HandSoldering)
      (libsource (lib device) (part LED))
      (sheetpath (names /) (tstamps /))
      (tstamp 5B15FE93))
    (comp (ref R28)
      (value 10k)
      (footprint Resistors_SMD:R_0805_HandSoldering)
      (libsource (lib device) (part R))
      (sheetpath (names /) (tstamps /))
      (tstamp 5B16BC7F))
    (comp (ref J3)
      (value IO)
      (footprint Pin_Headers:Pin_Header_Straight_1x04_Pitch1.27mm_SMD_Pin1Right)
      (libsource (lib conn) (part Conn_01x04))
      (sheetpath (names /) (tstamps /))
      (tstamp 5B4D846F))
    (comp (ref J4)
      (value IO)
      (footprint Pin_Headers:Pin_Header_Straight_1x02_Pitch1.27mm_SMD_Pin1Right)
      (libsource (lib conn) (part Conn_01x02))
      (sheetpath (names /) (tstamps /))
      (tstamp 5B4DB9DC))
    (comp (ref Q1)
      (value Si2302)
      (footprint TO_SOT_Packages_SMD:SOT-23_Handsoldering)
      (libsource (lib device) (part Q_NMOS_GSD))
      (sheetpath (names /Driver/) (tstamps /5B0F0299/))
      (tstamp 59613905))
    (comp (ref R4)
      (value 10K)
      (footprint Resistors_SMD:R_0805_HandSoldering)
      (libsource (lib device) (part R))
      (sheetpath (names /Driver/) (tstamps /5B0F0299/))
      (tstamp 596139DC))
    (comp (ref R2)
      (value 100)
      (footprint Resistors_SMD:R_0805_HandSoldering)
      (libsource (lib device) (part R))
      (sheetpath (names /Driver/) (tstamps /5B0F0299/))
      (tstamp 59613A5D))
    (comp (ref Q2)
      (value Si2302)
      (footprint TO_SOT_Packages_SMD:SOT-23_Handsoldering)
      (libsource (lib device) (part Q_NMOS_GSD))
      (sheetpath (names /Driver/) (tstamps /5B0F0299/))
      (tstamp 59615648))
    (comp (ref R5)
      (value 10K)
      (footprint Resistors_SMD:R_0805_HandSoldering)
      (libsource (lib device) (part R))
      (sheetpath (names /Driver/) (tstamps /5B0F0299/))
      (tstamp 5961564E))
    (comp (ref R3)
      (value 100)
      (footprint Resistors_SMD:R_0805_HandSoldering)
      (libsource (lib device) (part R))
      (sheetpath (names /Driver/) (tstamps /5B0F0299/))
      (tstamp 59615654))
    (comp (ref Q3)
      (value Si2302)
      (footprint TO_SOT_Packages_SMD:SOT-23_Handsoldering)
      (libsource (lib device) (part Q_NMOS_GSD))
      (sheetpath (names /Driver/) (tstamps /5B0F0299/))
      (tstamp 596157B3))
    (comp (ref R12)
      (value 10K)
      (footprint Resistors_SMD:R_0805_HandSoldering)
      (libsource (lib device) (part R))
      (sheetpath (names /Driver/) (tstamps /5B0F0299/))
      (tstamp 596157B9))
    (comp (ref R9)
      (value 100)
      (footprint Resistors_SMD:R_0805_HandSoldering)
      (libsource (lib device) (part R))
      (sheetpath (names /Driver/) (tstamps /5B0F0299/))
      (tstamp 596157BF))
    (comp (ref Q4)
      (value Si2302)
      (footprint TO_SOT_Packages_SMD:SOT-23_Handsoldering)
      (libsource (lib device) (part Q_NMOS_GSD))
      (sheetpath (names /Driver/) (tstamps /5B0F0299/))
      (tstamp 596157F2))
    (comp (ref R13)
      (value 10K)
      (footprint Resistors_SMD:R_0805_HandSoldering)
      (libsource (lib device) (part R))
      (sheetpath (names /Driver/) (tstamps /5B0F0299/))
      (tstamp 596157F8))
    (comp (ref R10)
      (value 100)
      (footprint Resistors_SMD:R_0805_HandSoldering)
      (libsource (lib device) (part R))
      (sheetpath (names /Driver/) (tstamps /5B0F0299/))
      (tstamp 596157FE))
    (comp (ref D2)
      (value 1N4148)
      (footprint Diodes_SMD:D_SOD-123)
      (libsource (lib device) (part D))
      (sheetpath (names /Driver/) (tstamps /5B0F0299/))
      (tstamp 5B0EF8DA))
    (comp (ref D7)
      (value 1N4148)
      (footprint Diodes_SMD:D_SOD-123)
      (libsource (lib device) (part D))
      (sheetpath (names /Driver/) (tstamps /5B0F0299/))
      (tstamp 5B0EFAAD))
    (comp (ref D8)
      (value 1N4148)
      (footprint Diodes_SMD:D_SOD-123)
      (libsource (lib device) (part D))
      (sheetpath (names /Driver/) (tstamps /5B0F0299/))
      (tstamp 5B0EFBE7))
    (comp (ref D3)
      (value 1N4148)
      (footprint Diodes_SMD:D_SOD-123)
      (libsource (lib device) (part D))
      (sheetpath (names /Driver/) (tstamps /5B0F0299/))
      (tstamp 5B0EFF01))
    (comp (ref M1)
      (value CW)
      (footprint Pin_Headers:Pin_Header_Straight_1x02_Pitch2.54mm)
      (libsource (lib motors) (part Motor_DC))
      (sheetpath (names /Driver/) (tstamps /5B0F0299/))
      (tstamp 5B0F0FB6))
    (comp (ref M3)
      (value CCW)
      (footprint Pin_Headers:Pin_Header_Straight_1x02_Pitch2.54mm)
      (libsource (lib motors) (part Motor_DC))
      (sheetpath (names /Driver/) (tstamps /5B0F0299/))
      (tstamp 5B0F15D0))
    (comp (ref M4)
      (value CCW)
      (footprint Pin_Headers:Pin_Header_Straight_1x02_Pitch2.54mm)
      (libsource (lib motors) (part Motor_DC))
      (sheetpath (names /Driver/) (tstamps /5B0F0299/))
      (tstamp 5B0F1652))
    (comp (ref M2)
      (value CW)
      (footprint Pin_Headers:Pin_Header_Straight_1x02_Pitch2.54mm)
      (libsource (lib motors) (part Motor_DC))
      (sheetpath (names /Driver/) (tstamps /5B0F0299/))
      (tstamp 5B0F16ED))
    (comp (ref U2)
      (value CP2102)
      (footprint Housings_DFN_QFN:QFN-28-1EP_5x5mm_Pitch0.5mm)
      (libsource (lib cp2102) (part CP2102))
      (sheetpath (names /Prog/) (tstamps /5B1164DF/))
      (tstamp 5B116554))
    (comp (ref J2)
      (value PROGRAMADOR)
      (footprint Connect:USB_Micro-B)
      (libsource (lib conn) (part USB_OTG))
      (sheetpath (names /Prog/) (tstamps /5B1164DF/))
      (tstamp 5B1165A1))
    (comp (ref D11)
      (value SS14)
      (footprint Diodes_SMD:D_SOD-123F)
      (libsource (lib device) (part D_Schottky))
      (sheetpath (names /Prog/) (tstamps /5B1164DF/))
      (tstamp 5B0EF7C4))
    (comp (ref D9)
      (value D5V0P1B2LP)
      (footprint Capacitors_SMD:C_0402_NoSilk)
      (libsource (lib device) (part D_TVS))
      (sheetpath (names /Prog/) (tstamps /5B1164DF/))
      (tstamp 5B0EF89A))
    (comp (ref D10)
      (value D5V0P1B2LP)
      (footprint Capacitors_SMD:C_0402_NoSilk)
      (libsource (lib device) (part D_TVS))
      (sheetpath (names /Prog/) (tstamps /5B1164DF/))
      (tstamp 5B0EF9DC))
    (comp (ref D12)
      (value D5V0P1B2LP)
      (footprint Capacitors_SMD:C_0402_NoSilk)
      (libsource (lib device) (part D_TVS))
      (sheetpath (names /Prog/) (tstamps /5B1164DF/))
      (tstamp 5B0EFA05))
    (comp (ref C5)
      (value 0.1uF)
      (footprint Capacitors_SMD:C_0805_HandSoldering)
      (libsource (lib device) (part C))
      (sheetpath (names /Prog/) (tstamps /5B1164DF/))
      (tstamp 5B0F00E2))
    (comp (ref C6)
      (value 10uF)
      (footprint Capacitors_SMD:C_0805_HandSoldering)
      (libsource (lib device) (part C))
      (sheetpath (names /Prog/) (tstamps /5B1164DF/))
      (tstamp 5B0F03BE))
    (comp (ref C7)
      (value 0.1uF)
      (footprint Capacitors_SMD:C_0805_HandSoldering)
      (libsource (lib device) (part C))
      (sheetpath (names /Prog/) (tstamps /5B1164DF/))
      (tstamp 5B0F0474))
    (comp (ref R14)
      (value 0R)
      (footprint Resistors_SMD:R_0805_HandSoldering)
      (libsource (lib device) (part R))
      (sheetpath (names /Prog/) (tstamps /5B1164DF/))
      (tstamp 5B0F148F))
    (comp (ref R15)
      (value 0R)
      (footprint Resistors_SMD:R_0805_HandSoldering)
      (libsource (lib device) (part R))
      (sheetpath (names /Prog/) (tstamps /5B1164DF/))
      (tstamp 5B0F15CB))
    (comp (ref Q5)
      (value S8050)
      (footprint TO_SOT_Packages_SMD:SOT-23_Handsoldering)
      (libsource (lib device) (part Q_NPN_BEC))
      (sheetpath (names /Prog/) (tstamps /5B1164DF/))
      (tstamp 5B0F231D))
    (comp (ref Q6)
      (value S8050)
      (footprint TO_SOT_Packages_SMD:SOT-23_Handsoldering)
      (libsource (lib device) (part Q_NPN_BEC))
      (sheetpath (names /Prog/) (tstamps /5B1164DF/))
      (tstamp 5B0F23F5))
    (comp (ref R16)
      (value 10K)
      (footprint Resistors_SMD:R_0805_HandSoldering)
      (libsource (lib device) (part R))
      (sheetpath (names /Prog/) (tstamps /5B1164DF/))
      (tstamp 5B0F2571))
    (comp (ref R17)
      (value 10K)
      (footprint Resistors_SMD:R_0805_HandSoldering)
      (libsource (lib device) (part R))
      (sheetpath (names /Prog/) (tstamps /5B1164DF/))
      (tstamp 5B0F27E9))
    (comp (ref L1)
      (value "2.2uH - 1.2A")
      (footprint coil:VLF4012AT-2R2M1R5)
      (libsource (lib device) (part L))
      (sheetpath (names /Power/) (tstamps /5B0EDE2F/))
      (tstamp 59807588))
    (comp (ref R18)
      (value 100)
      (footprint Resistors_SMD:R_0805_HandSoldering)
      (libsource (lib device) (part R))
      (sheetpath (names /Power/) (tstamps /5B0EDE2F/))
      (tstamp 598076D2))
    (comp (ref C9)
      (value 0.1uF)
      (footprint Capacitors_SMD:C_0805_HandSoldering)
      (libsource (lib device) (part C))
      (sheetpath (names /Power/) (tstamps /5B0EDE2F/))
      (tstamp 5980770F))
    (comp (ref C8)
      (value 10uF/6.3V)
      (footprint Capacitors_SMD:C_0805_HandSoldering)
      (libsource (lib device) (part C))
      (sheetpath (names /Power/) (tstamps /5B0EDE2F/))
      (tstamp 598078E6))
    (comp (ref C10)
      (value 10uF/6.3V)
      (footprint Capacitors_SMD:C_0805_HandSoldering)
      (libsource (lib device) (part C))
      (sheetpath (names /Power/) (tstamps /5B0EDE2F/))
      (tstamp 59807F4D))
    (comp (ref C11)
      (value 10uF/6.3V)
      (footprint Capacitors_SMD:C_0805_HandSoldering)
      (libsource (lib device) (part C))
      (sheetpath (names /Power/) (tstamps /5B0EDE2F/))
      (tstamp 59807FEB))
    (comp (ref U3)
      (value TPS63001)
      (footprint BUCKBOOST:TPS63001DRCT)
      (datasheet "96%25 Buck-Boost Converter with 1.7A Current Switches 3.3V fixed Output voltage in 3x3 QFN")
      (fields
        (field (name MF) "Texas Instruments")
        (field (name Price) None)
        (field (name Package) "VFDFN-10 Texas Instruments")
        (field (name Availability) Unavailable)
        (field (name MP) TPS63001))
      (libsource (lib TPS63001) (part TPS63001))
      (sheetpath (names /Power/) (tstamps /5B0EDE2F/))
      (tstamp 598073C2))
    (comp (ref D13)
      (value 1N4148)
      (footprint Diodes_SMD:D_SOD-123)
      (libsource (lib device) (part D))
      (sheetpath (names /Power/) (tstamps /5B0EDE2F/))
      (tstamp 5B0EE941))
    (comp (ref R32)
      (value 330)
      (footprint Resistors_SMD:R_0805_HandSoldering)
      (libsource (lib device) (part R))
      (sheetpath (names /Power/) (tstamps /5B0EDE2F/))
      (tstamp 5B173F32))
    (comp (ref D15)
      (value POWER)
      (footprint LEDs:LED_0805_HandSoldering)
      (libsource (lib device) (part LED))
      (sheetpath (names /Power/) (tstamps /5B0EDE2F/))
      (tstamp 5B173FD9))
    (comp (ref Q8)
      (value Si2302)
      (footprint TO_SOT_Packages_SMD:SOT-23_Handsoldering)
      (libsource (lib device) (part Q_NMOS_GSD))
      (sheetpath (names /Power/) (tstamps /5B0EDE2F/))
      (tstamp 5B50C9AD))
    (comp (ref Q7)
      (value Si2301)
      (footprint TO_SOT_Packages_SMD:SOT-23_Handsoldering)
      (libsource (lib device) (part Q_PMOS_GSD))
      (sheetpath (names /Power/) (tstamps /5B0EDE2F/))
      (tstamp 5B50D6C9))
    (comp (ref U6)
      (value VL53L0X)
      (footprint VL53L0X:VL53L0X_2)
      (libsource (lib "Adafruit VL53L0X") (part VL53L0X))
      (sheetpath (names /Sensors/) (tstamps /5B0F02B8/))
      (tstamp 5980D49B))
    (comp (ref R27)
      (value 10K)
      (footprint Resistors_SMD:R_0805_HandSoldering)
      (libsource (lib device) (part R))
      (sheetpath (names /Sensors/) (tstamps /5B0F02B8/))
      (tstamp 5980DDBB))
    (comp (ref R25)
      (value 10K)
      (footprint Resistors_SMD:R_0805_HandSoldering)
      (libsource (lib device) (part R))
      (sheetpath (names /Sensors/) (tstamps /5B0F02B8/))
      (tstamp 5980DE57))
    (comp (ref C14)
      (value 0.1uF)
      (footprint Capacitors_SMD:C_0805_HandSoldering)
      (libsource (lib device) (part C))
      (sheetpath (names /Sensors/) (tstamps /5B0F02B8/))
      (tstamp 5980F485))
    (comp (ref R24)
      (value 10K)
      (footprint Resistors_SMD:R_0805_HandSoldering)
      (libsource (lib device) (part R))
      (sheetpath (names /Sensors/) (tstamps /5B0F02B8/))
      (tstamp 59810E67))
    (comp (ref R26)
      (value 10K)
      (footprint Resistors_SMD:R_0805_HandSoldering)
      (libsource (lib device) (part R))
      (sheetpath (names /Sensors/) (tstamps /5B0F02B8/))
      (tstamp 59810EE9))
    (comp (ref R20)
      (value 10K)
      (footprint Resistors_SMD:R_0805_HandSoldering)
      (libsource (lib device) (part R))
      (sheetpath (names /Sensors/) (tstamps /5B0F02B8/))
      (tstamp 59810F5B))
    (comp (ref R21)
      (value 10K)
      (footprint Resistors_SMD:R_0805_HandSoldering)
      (libsource (lib device) (part R))
      (sheetpath (names /Sensors/) (tstamps /5B0F02B8/))
      (tstamp 59810FF3))
    (comp (ref Q9)
      (value BSS138)
      (footprint TO_SOT_Packages_SMD:SOT-23_Handsoldering)
      (libsource (lib device) (part Q_NMOS_GSD))
      (sheetpath (names /Sensors/) (tstamps /5B0F02B8/))
      (tstamp 5B0F6423))
    (comp (ref Q10)
      (value BSS138)
      (footprint TO_SOT_Packages_SMD:SOT-23_Handsoldering)
      (libsource (lib device) (part Q_NMOS_GSD))
      (sheetpath (names /Sensors/) (tstamps /5B0F02B8/))
      (tstamp 5B0F688B))
    (comp (ref D14)
      (value 1N4148)
      (footprint Diodes_SMD:D_SOD-123)
      (libsource (lib device) (part D))
      (sheetpath (names /Sensors/) (tstamps /5B0F02B8/))
      (tstamp 5B0F746C))
    (comp (ref R23)
      (value 10K)
      (footprint Resistors_SMD:R_0805_HandSoldering)
      (libsource (lib device) (part R))
      (sheetpath (names /Sensors/) (tstamps /5B0F02B8/))
      (tstamp 5960F748))
    (comp (ref R22)
      (value 10K)
      (footprint Resistors_SMD:R_0805_HandSoldering)
      (libsource (lib device) (part R))
      (sheetpath (names /Sensors/) (tstamps /5B0F02B8/))
      (tstamp 5960F4BC))
    (comp (ref U4)
      (value BME280)
      (footprint BME280:BME280)
      (libsource (lib "Adafruit BME280") (part BME280))
      (sheetpath (names /Sensors/) (tstamps /5B0F02B8/))
      (tstamp 5960DD9B))
    (comp (ref C12)
      (value 0.1uF)
      (footprint Capacitors_SMD:C_0805_HandSoldering)
      (libsource (lib device) (part C))
      (sheetpath (names /Sensors/) (tstamps /5B0F02B8/))
      (tstamp 5B10D4FC))
    (comp (ref C13)
      (value 0.1uF)
      (footprint Capacitors_SMD:C_0805_HandSoldering)
      (libsource (lib device) (part C))
      (sheetpath (names /Sensors/) (tstamps /5B0F02B8/))
      (tstamp 5B10D632))
    (comp (ref U5)
      (value MPU-9250)
      (footprint Housings_DFN_QFN:QFN-24_3x3mm_Pitch0.4mm_NoMask)
      (datasheet "SMD Gyroscope/Accelerometer/Magnetometer Sensor; 9-AXIS")
      (fields
        (field (name Campo4) 1428-1019-1-ND)
        (field (name Campo5) "QFN-24 InvenSense")
        (field (name Campo6) TDK-InvenSense)
        (field (name Campo7) https://www.digikey.com/product-detail/en/tdk-invensense/MPU-9250/1428-1019-1-ND/4626450?utm_source=snapeda&utm_medium=aggregator&utm_campaign=symbol)
        (field (name Campo8) MPU-9250))
      (libsource (lib MPU-9250) (part MPU-9250))
      (sheetpath (names /Sensors/) (tstamps /5B0F02B8/))
      (tstamp 5B1183A0))
    (comp (ref R19)
      (value 10K)
      (footprint Resistors_SMD:R_0805_HandSoldering)
      (libsource (lib device) (part R))
      (sheetpath (names /Sensors/) (tstamps /5B0F02B8/))
      (tstamp 5B11709C)))
  (libparts
    (libpart (lib "Adafruit BME280") (part BME280)
      (footprints
        (fp *BME280*))
      (fields
        (field (name Reference) U)
        (field (name Value) BME280)
        (field (name Footprint) BME280))
      (pins
        (pin (num 1) (name GND) (type power_in))
        (pin (num 2) (name CSB) (type input))
        (pin (num 3) (name SDI) (type input))
        (pin (num 4) (name SCK) (type input))
        (pin (num 5) (name SDO) (type output))
        (pin (num 6) (name VDDIO) (type power_in))
        (pin (num 7) (name GND) (type power_in))
        (pin (num 8) (name VDD) (type power_in))))
    (libpart (lib device) (part C)
      (description "Unpolarized capacitor")
      (footprints
        (fp C_*))
      (fields
        (field (name Reference) C)
        (field (name Value) C))
      (pins
        (pin (num 1) (name ~) (type passive))
        (pin (num 2) (name ~) (type passive))))
    (libpart (lib cp2102) (part CP2102)
      (footprints
        (fp QFN-28*))
      (fields
        (field (name Reference) U)
        (field (name Value) CP2102))
      (pins
        (pin (num 1) (name DCD) (type input))
        (pin (num 2) (name RI) (type input))
        (pin (num 3) (name GND) (type passive))
        (pin (num 4) (name D+) (type BiDi))
        (pin (num 5) (name D-) (type BiDi))
        (pin (num 6) (name VDD) (type power_out))
        (pin (num 7) (name REGIN) (type power_in))
        (pin (num 8) (name VBUS) (type power_in))
        (pin (num 9) (name n_RST) (type input))
        (pin (num 10) (name NC) (type NotConnected))
        (pin (num 11) (name n_SUSPEND) (type output))
        (pin (num 12) (name SUSPEND) (type output))
        (pin (num 13) (name NC) (type NotConnected))
        (pin (num 14) (name NC) (type NotConnected))
        (pin (num 15) (name NC) (type NotConnected))
        (pin (num 16) (name NC) (type NotConnected))
        (pin (num 17) (name NC) (type NotConnected))
        (pin (num 18) (name NC) (type NotConnected))
        (pin (num 19) (name NC) (type NotConnected))
        (pin (num 20) (name NC) (type NotConnected))
        (pin (num 21) (name NC) (type NotConnected))
        (pin (num 22) (name NC) (type NotConnected))
        (pin (num 23) (name CTS) (type input))
        (pin (num 24) (name RTS) (type output))
        (pin (num 25) (name RXD) (type input))
        (pin (num 26) (name TXD) (type output))
        (pin (num 27) (name DSR) (type input))
        (pin (num 28) (name DTR) (type output))
        (pin (num 29) (name GND) (type input))))
    (libpart (lib conn) (part Conn_01x02)
      (description "Generic connector, single row, 01x02")
      (docs ~)
      (footprints
        (fp Connector*:*_??x*mm*)
        (fp Connector*:*1x??x*mm*)
        (fp Pin?Header?Straight?1X*)
        (fp Pin?Header?Angled?1X*)
        (fp Socket?Strip?Straight?1X*)
        (fp Socket?Strip?Angled?1X*))
      (fields
        (field (name Reference) J)
        (field (name Value) Conn_01x02))
      (pins
        (pin (num 1) (name Pin_1) (type passive))
        (pin (num 2) (name Pin_2) (type passive))))
    (libpart (lib conn) (part Conn_01x04)
      (description "Generic connector, single row, 01x04")
      (docs ~)
      (footprints
        (fp Connector*:*_??x*mm*)
        (fp Connector*:*1x??x*mm*)
        (fp Pin?Header?Straight?1X*)
        (fp Pin?Header?Angled?1X*)
        (fp Socket?Strip?Straight?1X*)
        (fp Socket?Strip?Angled?1X*))
      (fields
        (field (name Reference) J)
        (field (name Value) Conn_01x04))
      (pins
        (pin (num 1) (name Pin_1) (type passive))
        (pin (num 2) (name Pin_2) (type passive))
        (pin (num 3) (name Pin_3) (type passive))
        (pin (num 4) (name Pin_4) (type passive))))
    (libpart (lib device) (part D)
      (description Diode)
      (footprints
        (fp TO-???*)
        (fp *SingleDiode)
        (fp *_Diode_*)
        (fp *SingleDiode*)
        (fp D_*))
      (fields
        (field (name Reference) D)
        (field (name Value) D))
      (pins
        (pin (num 1) (name K) (type passive))
        (pin (num 2) (name A) (type passive))))
    (libpart (lib device) (part D_Schottky)
      (description "Schottky diode")
      (footprints
        (fp TO-???*)
        (fp *SingleDiode)
        (fp *_Diode_*)
        (fp *SingleDiode*)
        (fp D_*))
      (fields
        (field (name Reference) D)
        (field (name Value) D_Schottky))
      (pins
        (pin (num 1) (name K) (type passive))
        (pin (num 2) (name A) (type passive))))
    (libpart (lib device) (part D_TVS)
      (description "Bidirectional transient-voltage-suppression (TVS) diode")
      (docs https://en.wikipedia.org/wiki/Transient-voltage-suppression_diode)
      (footprints
        (fp TO-???*)
        (fp *SingleDiode)
        (fp *_Diode_*)
        (fp *SingleDiode*)
        (fp D_*))
      (fields
        (field (name Reference) D)
        (field (name Value) D_TVS))
      (pins
        (pin (num 1) (name A1) (type passive))
        (pin (num 2) (name A2) (type passive))))
    (libpart (lib ESP-WROOM-32) (part ESP-WROOM-32)
      (fields
        (field (name Reference) U)
        (field (name Value) ESP-WROOM-32)
        (field (name Footprint) MODULE_ESP-WROOM-32)
        (field (name Datasheet) "4.53 USD")
        (field (name Field4) ESP-WROOM-32)
        (field (name Field5) "Module: combo; GPIO, I2C x2, I2S x2, SDIO, SPI x3, UART x3; 19.5dBm")
        (field (name Field6) Warning)
        (field (name Field7) "Module Espressif Systems")
        (field (name Field8) "Olimex LTD"))
      (pins
        (pin (num 1) (name GND) (type power_in))
        (pin (num 2) (name 3V3) (type power_in))
        (pin (num 3) (name EN) (type input))
        (pin (num 4) (name SENSOR_VP) (type input))
        (pin (num 5) (name SENSOR_VN) (type input))
        (pin (num 6) (name IO34) (type BiDi))
        (pin (num 7) (name IO35) (type BiDi))
        (pin (num 8) (name IO32) (type BiDi))
        (pin (num 9) (name IO33) (type BiDi))
        (pin (num 10) (name IO25) (type BiDi))
        (pin (num 11) (name IO26) (type BiDi))
        (pin (num 12) (name IO27) (type BiDi))
        (pin (num 13) (name IO14) (type BiDi))
        (pin (num 14) (name IO12) (type BiDi))
        (pin (num 15) (name GND) (type power_in))
        (pin (num 16) (name IO13) (type BiDi))
        (pin (num 17) (name SHD/SD2) (type BiDi))
        (pin (num 18) (name SWP/SD3) (type BiDi))
        (pin (num 19) (name SCS/CMD) (type BiDi))
        (pin (num 20) (name SCK/CLK) (type BiDi))
        (pin (num 21) (name SDO/SD0) (type BiDi))
        (pin (num 22) (name SDI/SD1) (type BiDi))
        (pin (num 23) (name IO15) (type BiDi))
        (pin (num 24) (name IO2) (type BiDi))
        (pin (num 25) (name IO0) (type BiDi))
        (pin (num 26) (name IO4) (type BiDi))
        (pin (num 27) (name IO16) (type BiDi))
        (pin (num 28) (name IO17) (type BiDi))
        (pin (num 29) (name IO5) (type BiDi))
        (pin (num 30) (name IO18) (type BiDi))
        (pin (num 31) (name IO19) (type BiDi))
        (pin (num 33) (name IO21) (type BiDi))
        (pin (num 34) (name RXD0) (type BiDi))
        (pin (num 35) (name TXD0) (type BiDi))
        (pin (num 36) (name IO22) (type BiDi))
        (pin (num 37) (name IO23) (type BiDi))
        (pin (num 38) (name GND) (type power_in))
        (pin (num 1.1) (name GND) (type power_in))))
    (libpart (lib device) (part L)
      (description Inductor)
      (footprints
        (fp Choke_*)
        (fp *Coil*)
        (fp Inductor_*)
        (fp L_*))
      (fields
        (field (name Reference) L)
        (field (name Value) L))
      (pins
        (pin (num 1) (name 1) (type passive))
        (pin (num 2) (name 2) (type passive))))
    (libpart (lib device) (part LED)
      (description "LED generic")
      (footprints
        (fp LED*))
      (fields
        (field (name Reference) D)
        (field (name Value) LED))
      (pins
        (pin (num 1) (name K) (type passive))
        (pin (num 2) (name A) (type passive))))
    (libpart (lib MPU-9250) (part MPU-9250)
      (fields
        (field (name Reference) U)
        (field (name Value) MPU-9250)
        (field (name Footprint) QFN40P300X300X105-25N)
        (field (name Datasheet) "SMD Gyroscope/Accelerometer/Magnetometer Sensor; 9-AXIS")
        (field (name Field4) 1428-1019-1-ND)
        (field (name Field5) "QFN-24 InvenSense")
        (field (name Field6) TDK-InvenSense)
        (field (name Field7) https://www.digikey.com/product-detail/en/tdk-invensense/MPU-9250/1428-1019-1-ND/4626450?utm_source=snapeda&utm_medium=aggregator&utm_campaign=symbol)
        (field (name Field8) MPU-9250))
      (pins
        (pin (num 1) (name RESV_1) (type passive))
        (pin (num 7) (name AUX_CL) (type input))
        (pin (num 8) (name VDDIO) (type power_in))
        (pin (num 9) (name AD0/SDO) (type output))
        (pin (num 10) (name REGOUT) (type output))
        (pin (num 11) (name FSYNC) (type input))
        (pin (num 12) (name INT) (type output))
        (pin (num 13) (name VDD) (type power_in))
        (pin (num 18) (name GND) (type power_in))
        (pin (num 19) (name RESV_19) (type passive))
        (pin (num 20) (name RESV_20) (type passive))
        (pin (num 21) (name AUX_DA) (type input))
        (pin (num 22) (name ~CS~) (type input))
        (pin (num 23) (name SCL/SCLK) (type input))
        (pin (num 24) (name SDA/SDI) (type BiDi))
        (pin (num 25) (name EXP_PAD) (type power_in))))
    (libpart (lib motors) (part Motor_DC)
      (footprints
        (fp Pin_Headers:Pin_Header_Straight_1x02)
        (fp Connect:bornier2)
        (fp TerminalBlock*2pol))
      (fields
        (field (name Reference) M)
        (field (name Value) Motor_DC))
      (pins
        (pin (num 1) (name +) (type passive))
        (pin (num 2) (name -) (type passive))))
    (libpart (lib device) (part Q_NMOS_GSD)
      (description "Transistor N-MOSFETwith substrate diode (general)")
      (fields
        (field (name Reference) Q)
        (field (name Value) Q_NMOS_GSD))
      (pins
        (pin (num 1) (name G) (type input))
        (pin (num 2) (name S) (type passive))
        (pin (num 3) (name D) (type passive))))
    (libpart (lib device) (part Q_NPN_BEC)
      (description "Transistor NPN (general)")
      (fields
        (field (name Reference) Q)
        (field (name Value) Q_NPN_BEC))
      (pins
        (pin (num 1) (name B) (type input))
        (pin (num 2) (name E) (type passive))
        (pin (num 3) (name C) (type passive))))
    (libpart (lib device) (part Q_PMOS_GSD)
      (description "Transistor P-MOSFET with substrate diode (general)")
      (fields
        (field (name Reference) Q)
        (field (name Value) Q_PMOS_GSD))
      (pins
        (pin (num 1) (name G) (type input))
        (pin (num 2) (name S) (type passive))
        (pin (num 3) (name D) (type passive))))
    (libpart (lib device) (part R)
      (description Resistor)
      (footprints
        (fp R_*)
        (fp R_*))
      (fields
        (field (name Reference) R)
        (field (name Value) R))
      (pins
        (pin (num 1) (name ~) (type passive))
        (pin (num 2) (name ~) (type passive))))
    (libpart (lib switches) (part SW_Push)
      (description "Push button switch, generic, two pins")
      (fields
        (field (name Reference) SW)
        (field (name Value) SW_Push))
      (pins
        (pin (num 1) (name 1) (type passive))
        (pin (num 2) (name 2) (type passive))))
    (libpart (lib TPS63001) (part TPS63001)
      (fields
        (field (name Reference) U)
        (field (name Value) TPS63001)
        (field (name Footprint) TPS63001)
        (field (name Datasheet) "96%25 Buck-Boost Converter with 1.7A Current Switches 3.3V fixed Output voltage in 3x3 QFN")
        (field (name MF) "Texas Instruments")
        (field (name Price) None)
        (field (name Package) "VFDFN-10 Texas Instruments")
        (field (name Availability) Unavailable)
        (field (name MP) TPS63001))
      (pins
        (pin (num 1) (name VOUT) (type BiDi))
        (pin (num 2) (name L2) (type BiDi))
        (pin (num 3) (name PGND@1) (type BiDi))
        (pin (num 4) (name L1) (type BiDi))
        (pin (num 5) (name VIN) (type BiDi))
        (pin (num 6) (name EN) (type BiDi))
        (pin (num 7) (name PS/SYNC) (type BiDi))
        (pin (num 8) (name VINA) (type BiDi))
        (pin (num 9) (name GND) (type BiDi))
        (pin (num 10) (name FB) (type BiDi))
        (pin (num PAD) (name GNDPAD) (type BiDi))
        (pin (num PGND) (name PGND@2) (type BiDi))))
    (libpart (lib conn) (part USB_OTG)
      (description "USB mini/micro connector")
      (footprints
        (fp USB*))
      (fields
        (field (name Reference) J)
        (field (name Value) USB_OTG))
      (pins
        (pin (num 1) (name VBUS) (type power_in))
        (pin (num 2) (name D-) (type passive))
        (pin (num 3) (name D+) (type passive))
        (pin (num 4) (name ID) (type passive))
        (pin (num 5) (name GND) (type power_in))
        (pin (num 6) (name Shield) (type passive))))
    (libpart (lib "Adafruit VL53L0X") (part VL53L0X)
      (footprints
        (fp *LGA12_ST*))
      (fields
        (field (name Reference) U)
        (field (name Value) VL53L0X)
        (field (name Footprint) LGA12_ST))
      (pins
        (pin (num 1) (name AVDDVCSEL) (type power_in))
        (pin (num 2) (name AVSSVCSEL) (type power_in))
        (pin (num 3) (name GND) (type power_in))
        (pin (num 4) (name GND) (type power_in))
        (pin (num 5) (name XSHUT) (type input))
        (pin (num 6) (name GND) (type power_in))
        (pin (num 7) (name GPIO1) (type output))
        (pin (num 8) (name DNC) (type unspc))
        (pin (num 9) (name SDA) (type openCol))
        (pin (num 10) (name SCL) (type openCol))
        (pin (num 11) (name AVDD) (type power_in))
        (pin (num 12) (name GND) (type power_in)))))
  (libraries
    (library (logical device)
      (uri "C:\\Program Files\\KiCad\\share\\kicad\\library\\device.lib"))
    (library (logical conn)
      (uri "C:\\Program Files\\KiCad\\share\\kicad\\library\\conn.lib"))
    (library (logical "Adafruit BME280")
      (uri "C:\\Users\\Diego\\Documents\\UTN\\6° año - 2017\\Proyecto Final\\uQA3\\hardware\\uqa3\\libs\\BME280\\Adafruit BME280.lib"))
    (library (logical TPS63001)
      (uri "C:\\Users\\Diego\\Documents\\UTN\\6° año - 2017\\Proyecto Final\\uQA3\\hardware\\uqa3\\libs\\TPS63001\\TPS63001.lib"))
    (library (logical "Adafruit VL53L0X")
      (uri "C:\\Users\\Diego\\Documents\\UTN\\6° año - 2017\\Proyecto Final\\uQA3\\hardware\\uqa3\\libs\\VL53L0X\\Adafruit VL53L0X.lib"))
    (library (logical cp2102)
      (uri "C:\\Users\\Diego\\Documents\\UTN\\6° año - 2017\\Proyecto Final\\uQA3\\hardware\\uqa3\\libs\\CP2102\\cp2102.lib"))
    (library (logical switches)
      (uri "C:\\Users\\Diego\\Documents\\UTN\\6° año - 2017\\Proyecto Final\\uQA3\\hardware\\uqa3\\libs\\Varios\\switches.lib"))
    (library (logical MPU-9250)
      (uri "C:\\Users\\Diego\\Documents\\UTN\\6° año - 2017\\Proyecto Final\\uQA3\\hardware\\uqa3\\libs\\MPU9250\\MPU-9250.lib"))
    (library (logical motors)
      (uri "C:\\Users\\Diego\\Documents\\UTN\\6° año - 2017\\Proyecto Final\\uQA3\\hardware\\uqa3\\libs\\Varios\\motors.lib"))
    (library (logical ESP-WROOM-32)
      (uri "C:\\Users\\Diego\\Documents\\UTN\\6° año - 2017\\Proyecto Final\\uQA3\\hardware\\uqa3\\libs\\ESP32\\ESP-WROOM-32.lib")))
  (nets
    (net (code 1) (name PWM0)
      (node (ref R2) (pin 1))
      (node (ref U1) (pin 26)))
    (net (code 2) (name PWM2)
      (node (ref R9) (pin 1))
      (node (ref U1) (pin 14)))
    (net (code 3) (name PWM3)
      (node (ref U1) (pin 37))
      (node (ref R10) (pin 1)))
    (net (code 4) (name BOOT)
      (node (ref Q6) (pin 3))
      (node (ref U1) (pin 25))
      (node (ref C2) (pin 1))
      (node (ref SW2) (pin 2)))
    (net (code 5) (name ESP_RESET)
      (node (ref U1) (pin 3))
      (node (ref C1) (pin 1))
      (node (ref SW1) (pin 2))
      (node (ref R1) (pin 2))
      (node (ref Q5) (pin 3)))
    (net (code 6) (name U0RXD0)
      (node (ref U1) (pin 34))
      (node (ref R15) (pin 2)))
    (net (code 7) (name U0TXD0)
      (node (ref U1) (pin 35))
      (node (ref R14) (pin 2)))
    (net (code 8) (name "Net-(D1-Pad2)")
      (node (ref R6) (pin 1))
      (node (ref D1) (pin 2)))
    (net (code 9) (name SENSORES_CS)
      (node (ref R19) (pin 2))
      (node (ref U5) (pin 22))
      (node (ref U1) (pin 27)))
    (net (code 10) (name GPIO_LASER)
      (node (ref U6) (pin 7))
      (node (ref R27) (pin 1))
      (node (ref U1) (pin 12)))
    (net (code 11) (name "Net-(U1-Pad18)")
      (node (ref U1) (pin 18)))
    (net (code 12) (name "Net-(U1-Pad17)")
      (node (ref U1) (pin 17)))
    (net (code 13) (name "Net-(U1-Pad22)")
      (node (ref U1) (pin 22)))
    (net (code 14) (name "Net-(U1-Pad21)")
      (node (ref U1) (pin 21)))
    (net (code 15) (name "Net-(U1-Pad20)")
      (node (ref U1) (pin 20)))
    (net (code 16) (name "Net-(U1-Pad19)")
      (node (ref U1) (pin 19)))
    (net (code 17) (name SENSORES_SCL)
      (node (ref U1) (pin 28))
      (node (ref U5) (pin 23))
      (node (ref Q9) (pin 3))
      (node (ref R20) (pin 2))
      (node (ref U4) (pin 4)))
    (net (code 18) (name BARO_ADR)
      (node (ref U1) (pin 16))
      (node (ref U4) (pin 5))
      (node (ref R22) (pin 2)))
    (net (code 19) (name PWM1)
      (node (ref R3) (pin 1))
      (node (ref U1) (pin 10)))
    (net (code 20) (name XSHUT)
      (node (ref U1) (pin 11))
      (node (ref D14) (pin 1)))
    (net (code 21) (name IMU_INT1)
      (node (ref U1) (pin 23))
      (node (ref U5) (pin 12)))
    (net (code 22) (name FSYNC)
      (node (ref U1) (pin 24))
      (node (ref U5) (pin 11)))
    (net (code 23) (name 3.3V)
      (node (ref U2) (pin 6))
      (node (ref C5) (pin 1))
      (node (ref R22) (pin 1))
      (node (ref R23) (pin 1))
      (node (ref U2) (pin 7))
      (node (ref U4) (pin 6))
      (node (ref U1) (pin 2))
      (node (ref R20) (pin 1))
      (node (ref R21) (pin 1))
      (node (ref U3) (pin 1))
      (node (ref C10) (pin 1))
      (node (ref R19) (pin 1))
      (node (ref C11) (pin 1))
      (node (ref C13) (pin 1))
      (node (ref U4) (pin 8))
      (node (ref U5) (pin 1))
      (node (ref U5) (pin 8))
      (node (ref U5) (pin 13))
      (node (ref U3) (pin 10))
      (node (ref R32) (pin 1))
      (node (ref D13) (pin 2))
      (node (ref R1) (pin 1))
      (node (ref C3) (pin 1))
      (node (ref C4) (pin 1)))
    (net (code 24) (name USB5V)
      (node (ref C7) (pin 1))
      (node (ref C6) (pin 1))
      (node (ref Q8) (pin 1))
      (node (ref Q8) (pin 3))
      (node (ref Q7) (pin 1))
      (node (ref D11) (pin 1))
      (node (ref U2) (pin 8)))
    (net (code 25) (name 2.8V)
      (node (ref Q10) (pin 1))
      (node (ref Q9) (pin 1))
      (node (ref C14) (pin 1))
      (node (ref D13) (pin 1))
      (node (ref U6) (pin 1))
      (node (ref R27) (pin 2))
      (node (ref R24) (pin 1))
      (node (ref R26) (pin 1))
      (node (ref U6) (pin 11))
      (node (ref R25) (pin 1)))
    (net (code 26) (name SENSORES_SDA)
      (node (ref R21) (pin 2))
      (node (ref U1) (pin 29))
      (node (ref U4) (pin 3))
      (node (ref Q10) (pin 3))
      (node (ref U5) (pin 24)))
    (net (code 27) (name IO22)
      (node (ref U1) (pin 36))
      (node (ref J4) (pin 2)))
    (net (code 28) (name IO21)
      (node (ref J4) (pin 1))
      (node (ref U1) (pin 33)))
    (net (code 29) (name IO35)
      (node (ref U1) (pin 7))
      (node (ref J3) (pin 3)))
    (net (code 30) (name IO34)
      (node (ref J3) (pin 2))
      (node (ref U1) (pin 6)))
    (net (code 31) (name IO32)
      (node (ref J3) (pin 4))
      (node (ref U1) (pin 8)))
    (net (code 32) (name IO39)
      (node (ref J3) (pin 1))
      (node (ref U1) (pin 5)))
    (net (code 33) (name "Net-(R28-Pad1)")
      (node (ref R28) (pin 1))
      (node (ref U1) (pin 4)))
    (net (code 34) (name BATERIA)
      (node (ref D2) (pin 1))
      (node (ref Q7) (pin 2))
      (node (ref D7) (pin 1))
      (node (ref D8) (pin 1))
      (node (ref D3) (pin 1))
      (node (ref R28) (pin 2))
      (node (ref M1) (pin 1))
      (node (ref M4) (pin 1))
      (node (ref J1) (pin 1))
      (node (ref M3) (pin 1))
      (node (ref M2) (pin 1)))
    (net (code 35) (name "Net-(R6-Pad2)")
      (node (ref R6) (pin 2))
      (node (ref U1) (pin 31)))
    (net (code 36) (name "Net-(D5-Pad2)")
      (node (ref D5) (pin 2))
      (node (ref R8) (pin 1)))
    (net (code 37) (name "Net-(R7-Pad2)")
      (node (ref U1) (pin 30))
      (node (ref R7) (pin 2)))
    (net (code 38) (name "Net-(R8-Pad2)")
      (node (ref R8) (pin 2))
      (node (ref U1) (pin 13)))
    (net (code 39) (name "Net-(D4-Pad2)")
      (node (ref R7) (pin 1))
      (node (ref D4) (pin 2)))
    (net (code 40) (name "Net-(R11-Pad2)")
      (node (ref R11) (pin 2))
      (node (ref U1) (pin 9)))
    (net (code 41) (name "Net-(D6-Pad2)")
      (node (ref D6) (pin 2))
      (node (ref R11) (pin 1)))
    (net (code 42) (name "Net-(L1-Pad1)")
      (node (ref L1) (pin 1))
      (node (ref U3) (pin 4)))
    (net (code 43) (name "Net-(L1-Pad2)")
      (node (ref L1) (pin 2))
      (node (ref U3) (pin 2)))
    (net (code 44) (name "Net-(C8-Pad1)")
      (node (ref R18) (pin 1))
      (node (ref C8) (pin 1))
      (node (ref U3) (pin 5))
      (node (ref Q7) (pin 3))
      (node (ref Q8) (pin 2)))
    (net (code 45) (name "Net-(C9-Pad1)")
      (node (ref U3) (pin 8))
      (node (ref R18) (pin 2))
      (node (ref C9) (pin 1))
      (node (ref U3) (pin 6))
      (node (ref U3) (pin 7)))
    (net (code 46) (name "Net-(D15-Pad2)")
      (node (ref R32) (pin 2))
      (node (ref D15) (pin 2)))
    (net (code 47) (name Earth)
      (node (ref D9) (pin 2))
      (node (ref U2) (pin 3))
      (node (ref D10) (pin 2))
      (node (ref C7) (pin 2))
      (node (ref U4) (pin 1))
      (node (ref U4) (pin 7))
      (node (ref D12) (pin 2))
      (node (ref C6) (pin 2))
      (node (ref J2) (pin 6))
      (node (ref U5) (pin 18))
      (node (ref C5) (pin 2))
      (node (ref U6) (pin 2))
      (node (ref U6) (pin 3))
      (node (ref U6) (pin 4))
      (node (ref U6) (pin 6))
      (node (ref U2) (pin 29))
      (node (ref U6) (pin 12))
      (node (ref C14) (pin 2))
      (node (ref J2) (pin 5))
      (node (ref C9) (pin 2))
      (node (ref C8) (pin 2))
      (node (ref C10) (pin 2))
      (node (ref C11) (pin 2))
      (node (ref U1) (pin 1))
      (node (ref U1) (pin 38))
      (node (ref U1) (pin 1.1))
      (node (ref J1) (pin 2))
      (node (ref U3) (pin PAD))
      (node (ref R13) (pin 1))
      (node (ref D15) (pin 1))
      (node (ref U3) (pin 9))
      (node (ref U3) (pin PGND))
      (node (ref U3) (pin PGND))
      (node (ref U3) (pin PGND))
      (node (ref U3) (pin 3))
      (node (ref D6) (pin 1))
      (node (ref C4) (pin 2))
      (node (ref D1) (pin 1))
      (node (ref D4) (pin 1))
      (node (ref D5) (pin 1))
      (node (ref C3) (pin 2))
      (node (ref C2) (pin 2))
      (node (ref U1) (pin 15))
      (node (ref C1) (pin 2))
      (node (ref SW1) (pin 1))
      (node (ref SW2) (pin 1))
      (node (ref C13) (pin 2))
      (node (ref Q2) (pin 2))
      (node (ref R5) (pin 1))
      (node (ref Q3) (pin 2))
      (node (ref R12) (pin 1))
      (node (ref Q1) (pin 2))
      (node (ref R4) (pin 1))
      (node (ref U5) (pin 20))
      (node (ref Q4) (pin 2))
      (node (ref U5) (pin 9))
      (node (ref C12) (pin 2)))
    (net (code 48) (name "Net-(Q4-Pad1)")
      (node (ref R10) (pin 2))
      (node (ref Q4) (pin 1))
      (node (ref R13) (pin 2)))
    (net (code 49) (name "Net-(Q3-Pad1)")
      (node (ref Q3) (pin 1))
      (node (ref R9) (pin 2))
      (node (ref R12) (pin 2)))
    (net (code 50) (name "Net-(D7-Pad2)")
      (node (ref M3) (pin 2))
      (node (ref Q3) (pin 3))
      (node (ref D7) (pin 2)))
    (net (code 51) (name "Net-(D8-Pad2)")
      (node (ref M4) (pin 2))
      (node (ref D8) (pin 2))
      (node (ref Q4) (pin 3)))
    (net (code 52) (name "Net-(Q1-Pad1)")
      (node (ref R2) (pin 2))
      (node (ref R4) (pin 2))
      (node (ref Q1) (pin 1)))
    (net (code 53) (name "Net-(D2-Pad2)")
      (node (ref Q1) (pin 3))
      (node (ref D2) (pin 2))
      (node (ref M1) (pin 2)))
    (net (code 54) (name "Net-(D3-Pad2)")
      (node (ref D3) (pin 2))
      (node (ref M2) (pin 2))
      (node (ref Q2) (pin 3)))
    (net (code 55) (name "Net-(Q2-Pad1)")
      (node (ref Q2) (pin 1))
      (node (ref R3) (pin 2))
      (node (ref R5) (pin 2)))
    (net (code 56) (name SDA_2.8V)
      (node (ref R26) (pin 2))
      (node (ref Q10) (pin 2))
      (node (ref U6) (pin 9)))
    (net (code 57) (name "Net-(U6-Pad8)")
      (node (ref U6) (pin 8)))
    (net (code 58) (name "Net-(U5-Pad7)")
      (node (ref U5) (pin 7)))
    (net (code 59) (name "Net-(C12-Pad1)")
      (node (ref C12) (pin 1))
      (node (ref U5) (pin 10)))
    (net (code 60) (name "Net-(U5-Pad21)")
      (node (ref U5) (pin 21)))
    (net (code 61) (name "Net-(R23-Pad2)")
      (node (ref R23) (pin 2))
      (node (ref U4) (pin 2)))
    (net (code 62) (name "Net-(U5-Pad19)")
      (node (ref U5) (pin 19)))
    (net (code 63) (name "Net-(U5-Pad25)")
      (node (ref U5) (pin 25)))
    (net (code 64) (name SCL_2.8V)
      (node (ref U6) (pin 10))
      (node (ref R24) (pin 2))
      (node (ref Q9) (pin 2)))
    (net (code 65) (name "Net-(D14-Pad2)")
      (node (ref D14) (pin 2))
      (node (ref R25) (pin 2))
      (node (ref U6) (pin 5)))
    (net (code 66) (name "Net-(U2-Pad2)")
      (node (ref U2) (pin 2)))
    (net (code 67) (name "Net-(U2-Pad1)")
      (node (ref U2) (pin 1)))
    (net (code 68) (name "Net-(U2-Pad15)")
      (node (ref U2) (pin 15)))
    (net (code 69) (name "Net-(U2-Pad16)")
      (node (ref U2) (pin 16)))
    (net (code 70) (name "Net-(U2-Pad17)")
      (node (ref U2) (pin 17)))
    (net (code 71) (name "Net-(U2-Pad18)")
      (node (ref U2) (pin 18)))
    (net (code 72) (name "Net-(U2-Pad19)")
      (node (ref U2) (pin 19)))
    (net (code 73) (name "Net-(U2-Pad20)")
      (node (ref U2) (pin 20)))
    (net (code 74) (name "Net-(U2-Pad21)")
      (node (ref U2) (pin 21)))
    (net (code 75) (name "Net-(U2-Pad14)")
      (node (ref U2) (pin 14)))
    (net (code 76) (name "Net-(U2-Pad27)")
      (node (ref U2) (pin 27)))
    (net (code 77) (name "Net-(U2-Pad22)")
      (node (ref U2) (pin 22)))
    (net (code 78) (name "Net-(U2-Pad13)")
      (node (ref U2) (pin 13)))
    (net (code 79) (name "Net-(U2-Pad12)")
      (node (ref U2) (pin 12)))
    (net (code 80) (name "Net-(U2-Pad11)")
      (node (ref U2) (pin 11)))
    (net (code 81) (name "Net-(U2-Pad10)")
      (node (ref U2) (pin 10)))
    (net (code 82) (name "Net-(U2-Pad9)")
      (node (ref U2) (pin 9)))
    (net (code 83) (name TXD)
      (node (ref R15) (pin 1))
      (node (ref U2) (pin 26)))
    (net (code 84) (name RXD)
      (node (ref R14) (pin 1))
      (node (ref U2) (pin 25)))
    (net (code 85) (name RTS)
      (node (ref U2) (pin 24))
      (node (ref R17) (pin 2))
      (node (ref Q5) (pin 2)))
    (net (code 86) (name "Net-(U2-Pad23)")
      (node (ref U2) (pin 23)))
    (net (code 87) (name DTR)
      (node (ref U2) (pin 28))
      (node (ref Q6) (pin 2))
      (node (ref R16) (pin 2)))
    (net (code 88) (name USB_DN)
      (node (ref J2) (pin 2))
      (node (ref U2) (pin 5))
      (node (ref D12) (pin 1)))
    (net (code 89) (name USB_DP)
      (node (ref D10) (pin 1))
      (node (ref J2) (pin 3))
      (node (ref U2) (pin 4)))
    (net (code 90) (name "Net-(J2-Pad4)")
      (node (ref J2) (pin 4)))
    (net (code 91) (name "Net-(D11-Pad2)")
      (node (ref J2) (pin 1))
      (node (ref D11) (pin 2))
      (node (ref D9) (pin 1)))
    (net (code 92) (name "Net-(Q5-Pad1)")
      (node (ref Q5) (pin 1))
      (node (ref R16) (pin 1)))
    (net (code 93) (name "Net-(Q6-Pad1)")
      (node (ref Q6) (pin 1))
      (node (ref R17) (pin 1)))))