EESchema Schematic File Version 2
LIBS:power
LIBS:device
LIBS:transistors
LIBS:conn
LIBS:linear
LIBS:regul
LIBS:74xx
LIBS:cmos4000
LIBS:adc-dac
LIBS:memory
LIBS:xilinx
LIBS:microcontrollers
LIBS:dsp
LIBS:microchip
LIBS:analog_switches
LIBS:motorola
LIBS:texas
LIBS:intel
LIBS:audio
LIBS:interface
LIBS:digital-audio
LIBS:philips
LIBS:display
LIBS:cypress
LIBS:siliconi
LIBS:opto
LIBS:atmel
LIBS:contrib
LIBS:valves
LIBS:Adafruit BME280
LIBS:ESP32-PICO-D4
LIBS:FXAS21002C+FXOS8700CQ
LIBS:Adafruit MicroUSB Lipo
LIBS:MPU6050
LIBS:TPS63001
LIBS:Adafruit VL53L0X
LIBS:cp2102
LIBS:switches
LIBS:motors
LIBS:MPU-9250
LIBS:ESP-WROOM-32
LIBS:uQA3-cache
EELAYER 25 0
EELAYER END
$Descr A4 11693 8268
encoding utf-8
Sheet 4 5
Title "Fuente de Alimentación"
Date "2018-07-18"
Rev ""
Comp "Claudio J. Paz"
Comment1 "Cuadrotor aéreo no tripulado "
Comment2 "de dimensiones pequeñas "
Comment3 "y estructura abierta uQA3"
Comment4 "2018"
$EndDescr
$Comp
L L L1
U 1 1 59807588
P 4150 3350
F 0 "L1" V 4100 3350 50  0000 C CNN
F 1 "2.2uH - 1.2A" V 4225 3350 50  0000 C CNN
F 2 "coil:VLF4012AT-2R2M1R5" H 4150 3350 50  0001 C CNN
F 3 "" H 4150 3350 50  0001 C CNN
	1    4150 3350
	0    -1   -1   0   
$EndComp
$Comp
L R R18
U 1 1 598076D2
P 2900 4400
F 0 "R18" V 2980 4400 50  0000 C CNN
F 1 "100" V 2900 4400 50  0000 C CNN
F 2 "Resistors_SMD:R_0805_HandSoldering" V 2830 4400 50  0001 C CNN
F 3 "" H 2900 4400 50  0001 C CNN
	1    2900 4400
	1    0    0    -1  
$EndComp
$Comp
L C C9
U 1 1 5980770F
P 2900 4900
F 0 "C9" H 2925 5000 50  0000 L CNN
F 1 "0.1uF" H 2925 4800 50  0000 L CNN
F 2 "Capacitors_SMD:C_0805_HandSoldering" H 2938 4750 50  0001 C CNN
F 3 "" H 2900 4900 50  0001 C CNN
	1    2900 4900
	1    0    0    -1  
$EndComp
$Comp
L C C8
U 1 1 598078E6
P 2500 4700
F 0 "C8" H 2525 4800 50  0000 L CNN
F 1 "10uF/6.3V" H 2050 4600 50  0000 L CNN
F 2 "Capacitors_SMD:C_0805_HandSoldering" H 2538 4550 50  0001 C CNN
F 3 "" H 2500 4700 50  0001 C CNN
	1    2500 4700
	1    0    0    -1  
$EndComp
$Comp
L C C10
U 1 1 59807F4D
P 5400 4700
F 0 "C10" H 5425 4800 50  0000 L CNN
F 1 "10uF/6.3V" H 5000 4600 50  0000 L CNN
F 2 "Capacitors_SMD:C_0805_HandSoldering" H 5438 4550 50  0001 C CNN
F 3 "" H 5400 4700 50  0001 C CNN
	1    5400 4700
	1    0    0    -1  
$EndComp
$Comp
L C C11
U 1 1 59807FEB
P 5700 4700
F 0 "C11" H 5725 4800 50  0000 L CNN
F 1 "10uF/6.3V" H 5300 4500 50  0000 L CNN
F 2 "Capacitors_SMD:C_0805_HandSoldering" H 5738 4550 50  0001 C CNN
F 3 "" H 5700 4700 50  0001 C CNN
	1    5700 4700
	1    0    0    -1  
$EndComp
Text Notes 650  2500 0    60   ~ 0
FUENTE BUCK/BOOST  (1.8/5.5V A 3.3V)
Wire Wire Line
	4900 3950 5050 3950
Wire Wire Line
	5050 3950 5050 3350
Wire Wire Line
	5050 3350 4300 3350
Wire Wire Line
	4000 3350 3350 3350
Wire Wire Line
	3350 3350 3350 3950
Wire Wire Line
	3350 3950 3500 3950
Wire Wire Line
	2900 4550 2900 4750
Wire Wire Line
	2900 4150 2900 4250
Wire Wire Line
	2000 4150 3500 4150
Wire Wire Line
	3350 4650 2900 4650
Wire Wire Line
	3350 4350 3350 4750
Wire Wire Line
	3350 4350 3500 4350
Connection ~ 2900 4650
Wire Wire Line
	3500 4550 3350 4550
Connection ~ 3350 4550
Wire Wire Line
	3350 4750 3500 4750
Connection ~ 3350 4650
Wire Wire Line
	2900 5250 2900 5050
Wire Wire Line
	3500 4950 3350 4950
Wire Wire Line
	3350 4950 3350 5250
Wire Wire Line
	2500 5250 2500 4850
Wire Wire Line
	2500 4550 2500 4150
Connection ~ 2900 4150
Connection ~ 2500 4150
Wire Wire Line
	4100 5550 4100 5650
Wire Wire Line
	4300 5600 4300 5550
Wire Wire Line
	3800 5600 4300 5600
Connection ~ 4100 5600
Wire Wire Line
	3800 5600 3800 5550
Wire Wire Line
	3900 5550 3900 5600
Connection ~ 3900 5600
Wire Wire Line
	4000 5550 4000 5600
Connection ~ 4000 5600
Wire Wire Line
	5050 5250 5050 4950
Wire Wire Line
	5050 4950 4900 4950
Wire Wire Line
	4900 4550 5050 4550
Wire Wire Line
	5050 4550 5050 4150
Wire Wire Line
	5400 5250 5400 4850
Wire Wire Line
	5400 4550 5400 4150
Connection ~ 5400 4150
Wire Wire Line
	5700 5250 5700 4850
Wire Wire Line
	5700 4150 5700 4550
Connection ~ 5700 4150
Wire Wire Line
	1850 4450 2000 4450
Wire Wire Line
	2000 4450 2000 3850
Wire Wire Line
	2000 3850 1850 3850
Connection ~ 2000 4150
Text HLabel 3200 1450 0    60   Input ~ 0
USB5V
Wire Wire Line
	1300 3450 1650 3450
Wire Wire Line
	1650 3450 1650 3550
Text HLabel 3200 1250 0    60   Input ~ 0
BATERIA
Wire Wire Line
	1300 3850 1450 3850
Wire Wire Line
	1450 4450 1300 4450
Wire Wire Line
	1650 4750 1650 4850
Wire Wire Line
	1650 4850 1400 4850
Wire Wire Line
	1400 4850 1400 4450
Connection ~ 1400 4450
$Comp
L TPS63001 U3
U 1 1 598073C2
P 4200 4450
F 0 "U3" H 3700 5100 50  0000 L BNN
F 1 "TPS63001" H 4200 4450 50  0001 L BNN
F 2 "BUCKBOOST:TPS63001DRCT" H 4200 4450 50  0001 L BNN
F 3 "96%25 Buck-Boost Converter with 1.7A Current Switches 3.3V fixed Output voltage in 3x3 QFN" H 4200 4450 50  0001 L BNN
F 4 "Texas Instruments" H 4200 4450 50  0001 L BNN "MF"
F 5 "None" H 4200 4450 50  0001 L BNN "Price"
F 6 "VFDFN-10 Texas Instruments" H 4200 4450 50  0001 L BNN "Package"
F 7 "Unavailable" H 4200 4450 50  0001 L BNN "Availability"
F 8 "TPS63001" H 4200 4450 50  0001 L BNN "MP"
	1    4200 4450
	1    0    0    -1  
$EndComp
Wire Wire Line
	4900 4150 6350 4150
Text HLabel 3950 1650 2    60   Output ~ 0
3.3V
Text HLabel 1800 1300 0    60   Input ~ 0
GND
Wire Wire Line
	1900 1400 1900 1300
Wire Wire Line
	1900 1300 1800 1300
Text GLabel 1300 3850 0    60   Input ~ 0
BATERIA
Text HLabel 3950 1850 2    60   Output ~ 0
2.8V
Wire Wire Line
	5900 3850 5850 3850
Wire Wire Line
	5850 3850 5850 4150
Connection ~ 5850 4150
Wire Wire Line
	6200 3850 6350 3850
Text Notes 800  6000 0    60   ~ 0
NOTA: Código inductor VLF4012-2R2
$Comp
L D D13
U 1 1 5B0EE941
P 6050 3850
F 0 "D13" H 6050 3950 50  0000 C CNN
F 1 "1N4148" H 6050 3750 50  0000 C CNN
F 2 "Diodes_SMD:D_SOD-123" H 6050 3850 50  0001 C CNN
F 3 "" H 6050 3850 50  0001 C CNN
	1    6050 3850
	-1   0    0    1   
$EndComp
Connection ~ 5050 4150
$Comp
L R R32
U 1 1 5B173F32
P 6100 4500
F 0 "R32" V 6180 4500 50  0000 C CNN
F 1 "330" V 6100 4500 50  0000 C CNN
F 2 "Resistors_SMD:R_0805_HandSoldering" V 6030 4500 50  0001 C CNN
F 3 "" H 6100 4500 50  0001 C CNN
	1    6100 4500
	1    0    0    -1  
$EndComp
$Comp
L LED D15
U 1 1 5B173FD9
P 6100 5000
F 0 "D15" H 6100 5100 50  0000 C CNN
F 1 "POWER" H 6100 4850 50  0000 C CNN
F 2 "LEDs:LED_0805_HandSoldering" H 6100 5000 50  0001 C CNN
F 3 "" H 6100 5000 50  0001 C CNN
	1    6100 5000
	0    -1   -1   0   
$EndComp
$Comp
L GND #PWR037
U 1 1 5B1741D1
P 4100 5650
F 0 "#PWR037" H 4100 5400 50  0001 C CNN
F 1 "GND" H 4100 5500 50  0000 C CNN
F 2 "" H 4100 5650 50  0001 C CNN
F 3 "" H 4100 5650 50  0001 C CNN
	1    4100 5650
	1    0    0    -1  
$EndComp
$Comp
L GND #PWR038
U 1 1 5B17425F
P 6100 5250
F 0 "#PWR038" H 6100 5000 50  0001 C CNN
F 1 "GND" H 6100 5100 50  0000 C CNN
F 2 "" H 6100 5250 50  0001 C CNN
F 3 "" H 6100 5250 50  0001 C CNN
	1    6100 5250
	1    0    0    -1  
$EndComp
$Comp
L GND #PWR039
U 1 1 5B17429A
P 5700 5250
F 0 "#PWR039" H 5700 5000 50  0001 C CNN
F 1 "GND" H 5700 5100 50  0000 C CNN
F 2 "" H 5700 5250 50  0001 C CNN
F 3 "" H 5700 5250 50  0001 C CNN
	1    5700 5250
	1    0    0    -1  
$EndComp
$Comp
L GND #PWR040
U 1 1 5B1742C9
P 5400 5250
F 0 "#PWR040" H 5400 5000 50  0001 C CNN
F 1 "GND" H 5400 5100 50  0000 C CNN
F 2 "" H 5400 5250 50  0001 C CNN
F 3 "" H 5400 5250 50  0001 C CNN
	1    5400 5250
	1    0    0    -1  
$EndComp
$Comp
L GND #PWR041
U 1 1 5B1742F8
P 5050 5250
F 0 "#PWR041" H 5050 5000 50  0001 C CNN
F 1 "GND" H 5050 5100 50  0000 C CNN
F 2 "" H 5050 5250 50  0001 C CNN
F 3 "" H 5050 5250 50  0001 C CNN
	1    5050 5250
	1    0    0    -1  
$EndComp
$Comp
L GND #PWR042
U 1 1 5B17443C
P 3350 5250
F 0 "#PWR042" H 3350 5000 50  0001 C CNN
F 1 "GND" H 3350 5100 50  0000 C CNN
F 2 "" H 3350 5250 50  0001 C CNN
F 3 "" H 3350 5250 50  0001 C CNN
	1    3350 5250
	1    0    0    -1  
$EndComp
$Comp
L GND #PWR043
U 1 1 5B174483
P 2900 5250
F 0 "#PWR043" H 2900 5000 50  0001 C CNN
F 1 "GND" H 2900 5100 50  0000 C CNN
F 2 "" H 2900 5250 50  0001 C CNN
F 3 "" H 2900 5250 50  0001 C CNN
	1    2900 5250
	1    0    0    -1  
$EndComp
$Comp
L GND #PWR044
U 1 1 5B1744B2
P 2500 5250
F 0 "#PWR044" H 2500 5000 50  0001 C CNN
F 1 "GND" H 2500 5100 50  0000 C CNN
F 2 "" H 2500 5250 50  0001 C CNN
F 3 "" H 2500 5250 50  0001 C CNN
	1    2500 5250
	1    0    0    -1  
$EndComp
$Comp
L GND #PWR045
U 1 1 5B1744E1
P 1900 1400
F 0 "#PWR045" H 1900 1150 50  0001 C CNN
F 1 "GND" H 1900 1250 50  0000 C CNN
F 2 "" H 1900 1400 50  0001 C CNN
F 3 "" H 1900 1400 50  0001 C CNN
	1    1900 1400
	1    0    0    -1  
$EndComp
Wire Wire Line
	6100 5250 6100 5150
Wire Wire Line
	6100 4850 6100 4650
Wire Wire Line
	6100 4350 6100 4150
Connection ~ 6100 4150
Wire Notes Line
	11100 550  11100 6000
Wire Notes Line
	7000 550  7000 7700
Wire Notes Line
	7000 7700 550  7700
Wire Notes Line
	550  7700 550  550 
Text GLabel 1300 3450 0    60   Input ~ 0
USB5V
Text GLabel 1300 4450 0    60   Input ~ 0
USB5V
Text GLabel 6350 3850 2    60   Output ~ 0
2.8V
Text GLabel 6350 4150 2    60   Output ~ 0
3.3V
Text GLabel 3200 1650 0    60   Input ~ 0
3.3V
Text GLabel 3200 1850 0    60   Input ~ 0
2.8V
Text GLabel 3950 1450 2    60   Output ~ 0
USB5V
Text GLabel 3950 1250 2    60   Output ~ 0
BATERIA
Wire Wire Line
	3950 1250 3200 1250
Wire Wire Line
	3200 1450 3950 1450
Wire Wire Line
	3950 1650 3200 1650
Wire Wire Line
	3200 1850 3950 1850
Wire Notes Line
	550  2300 7000 2300
Text Notes 600  700  0    60   ~ 0
REFERENCIAS
Wire Notes Line
	7100 6000 7100 550 
Wire Notes Line
	550  550  7000 550 
Wire Notes Line
	7100 550  11100 550 
Wire Notes Line
	11100 6000 7100 6000
$Comp
L Q_NMOS_GSD Q8
U 1 1 5B50C9AD
P 1650 4550
F 0 "Q8" V 1600 4300 50  0000 L CNN
F 1 "Si2302" V 1900 4450 50  0000 L CNN
F 2 "TO_SOT_Packages_SMD:SOT-23_Handsoldering" H 1850 4650 50  0001 C CNN
F 3 "" H 1650 4550 50  0001 C CNN
	1    1650 4550
	0    -1   -1   0   
$EndComp
$Comp
L Q_PMOS_GSD Q7
U 1 1 5B50D6C9
P 1650 3750
F 0 "Q7" V 1550 3900 50  0000 L CNN
F 1 "Si2301" V 1900 3600 50  0000 L CNN
F 2 "TO_SOT_Packages_SMD:SOT-23_Handsoldering" H 1850 3850 50  0001 C CNN
F 3 "" H 1650 3750 50  0001 C CNN
	1    1650 3750
	0    1    1    0   
$EndComp
$EndSCHEMATC
