EESchema Schematic File Version 2
LIBS:power
LIBS:device
LIBS:transistors
LIBS:conn
LIBS:linear
LIBS:regul
LIBS:74xx
LIBS:cmos4000
LIBS:adc-dac
LIBS:memory
LIBS:xilinx
LIBS:microcontrollers
LIBS:dsp
LIBS:microchip
LIBS:analog_switches
LIBS:motorola
LIBS:texas
LIBS:intel
LIBS:audio
LIBS:interface
LIBS:digital-audio
LIBS:philips
LIBS:display
LIBS:cypress
LIBS:siliconi
LIBS:opto
LIBS:atmel
LIBS:contrib
LIBS:valves
LIBS:Adafruit BME280
LIBS:ESP32-PICO-D4
LIBS:FXAS21002C+FXOS8700CQ
LIBS:Adafruit MicroUSB Lipo
LIBS:MPU6050
LIBS:TPS63001
LIBS:Adafruit VL53L0X
LIBS:cp2102
LIBS:switches
LIBS:motors
LIBS:MPU-9250
LIBS:ESP-WROOM-32
LIBS:uQA3-cache
EELAYER 25 0
EELAYER END
$Descr A4 11693 8268
encoding utf-8
Sheet 3 5
Title "Interfaz USB-UART"
Date "2018-07-18"
Rev ""
Comp "Claudio J. Paz"
Comment1 "Cuadrotor aéreo no tripulado"
Comment2 "de dimensiones pequeñas"
Comment3 "y estructura abierta uQA3"
Comment4 "2018"
$EndDescr
$Comp
L CP2102 U2
U 1 1 5B116554
P 5350 3800
F 0 "U2" H 5350 4000 60  0000 C CNN
F 1 "CP2102" H 5350 3900 60  0000 C CNN
F 2 "Housings_DFN_QFN:QFN-28-1EP_5x5mm_Pitch0.5mm" H 5350 3800 60  0001 C CNN
F 3 "" H 5350 3800 60  0001 C CNN
	1    5350 3800
	1    0    0    -1  
$EndComp
$Comp
L USB_OTG J2
U 1 1 5B1165A1
P 1700 3000
F 0 "J2" H 1500 3450 50  0000 L CNN
F 1 "PROGRAMADOR" H 1500 3350 50  0000 L CNN
F 2 "Connect:USB_Micro-B" H 1850 2950 50  0001 C CNN
F 3 "" H 1850 2950 50  0001 C CNN
	1    1700 3000
	1    0    0    -1  
$EndComp
$Comp
L D_Schottky D11
U 1 1 5B0EF7C4
P 2650 2800
F 0 "D11" H 2650 2900 50  0000 C CNN
F 1 "SS14" H 2650 2700 50  0000 C CNN
F 2 "Diodes_SMD:D_SOD-123F" H 2650 2800 50  0001 C CNN
F 3 "" H 2650 2800 50  0001 C CNN
	1    2650 2800
	-1   0    0    1   
$EndComp
$Comp
L D_TVS D9
U 1 1 5B0EF89A
P 2250 3550
F 0 "D9" H 2250 3650 50  0000 C CNN
F 1 "D5V0P1B2LP" H 2250 3450 50  0000 C CNN
F 2 "Capacitors_SMD:C_0402_NoSilk" H 2250 3550 50  0001 C CNN
F 3 "" H 2250 3550 50  0001 C CNN
	1    2250 3550
	0    1    1    0   
$EndComp
$Comp
L D_TVS D10
U 1 1 5B0EF9DC
P 2550 3550
F 0 "D10" H 2550 3650 50  0000 C CNN
F 1 "D5V0P1B2LP" H 2550 3450 50  0000 C CNN
F 2 "Capacitors_SMD:C_0402_NoSilk" H 2550 3550 50  0001 C CNN
F 3 "" H 2550 3550 50  0001 C CNN
	1    2550 3550
	0    1    1    0   
$EndComp
$Comp
L D_TVS D12
U 1 1 5B0EFA05
P 2850 3550
F 0 "D12" H 2850 3650 50  0000 C CNN
F 1 "D5V0P1B2LP" H 2850 3450 50  0000 C CNN
F 2 "Capacitors_SMD:C_0402_NoSilk" H 2850 3550 50  0001 C CNN
F 3 "" H 2850 3550 50  0001 C CNN
	1    2850 3550
	0    1    1    0   
$EndComp
NoConn ~ 2000 3200
$Comp
L GND #PWR026
U 1 1 5B0EFB25
P 1600 3900
F 0 "#PWR026" H 1600 3650 50  0001 C CNN
F 1 "GND" H 1600 3750 50  0000 C CNN
F 2 "" H 1600 3900 50  0001 C CNN
F 3 "" H 1600 3900 50  0001 C CNN
	1    1600 3900
	1    0    0    -1  
$EndComp
$Comp
L GND #PWR027
U 1 1 5B0EFB49
P 1700 3900
F 0 "#PWR027" H 1700 3650 50  0001 C CNN
F 1 "GND" H 1700 3750 50  0000 C CNN
F 2 "" H 1700 3900 50  0001 C CNN
F 3 "" H 1700 3900 50  0001 C CNN
	1    1700 3900
	1    0    0    -1  
$EndComp
$Comp
L GND #PWR028
U 1 1 5B0EFB66
P 2250 3900
F 0 "#PWR028" H 2250 3650 50  0001 C CNN
F 1 "GND" H 2250 3750 50  0000 C CNN
F 2 "" H 2250 3900 50  0001 C CNN
F 3 "" H 2250 3900 50  0001 C CNN
	1    2250 3900
	1    0    0    -1  
$EndComp
$Comp
L GND #PWR029
U 1 1 5B0EFB83
P 2550 3900
F 0 "#PWR029" H 2550 3650 50  0001 C CNN
F 1 "GND" H 2550 3750 50  0000 C CNN
F 2 "" H 2550 3900 50  0001 C CNN
F 3 "" H 2550 3900 50  0001 C CNN
	1    2550 3900
	1    0    0    -1  
$EndComp
$Comp
L GND #PWR030
U 1 1 5B0EFBA0
P 2850 3900
F 0 "#PWR030" H 2850 3650 50  0001 C CNN
F 1 "GND" H 2850 3750 50  0000 C CNN
F 2 "" H 2850 3900 50  0001 C CNN
F 3 "" H 2850 3900 50  0001 C CNN
	1    2850 3900
	1    0    0    -1  
$EndComp
Text GLabel 3000 3100 2    60   Output ~ 0
USB_DN
Text GLabel 3000 3000 2    60   Output ~ 0
USB_DP
Text GLabel 3000 2800 2    60   Output ~ 0
USB5V
NoConn ~ 6050 3400
NoConn ~ 6050 3500
NoConn ~ 6050 3600
NoConn ~ 6050 3700
NoConn ~ 6050 3800
NoConn ~ 6050 3900
NoConn ~ 6050 4000
NoConn ~ 4650 3450
NoConn ~ 4650 3550
Text GLabel 4500 3750 0    60   Input ~ 0
USB_DP
Text GLabel 4500 3850 0    60   Input ~ 0
USB_DN
Text GLabel 4100 3950 0    60   Input ~ 0
3.3V
$Comp
L C C5
U 1 1 5B0F00E2
P 4200 4200
F 0 "C5" H 4225 4300 50  0000 L CNN
F 1 "0.1uF" H 4225 4100 50  0000 L CNN
F 2 "Capacitors_SMD:C_0805_HandSoldering" H 4238 4050 50  0001 C CNN
F 3 "" H 4200 4200 50  0001 C CNN
	1    4200 4200
	1    0    0    -1  
$EndComp
$Comp
L GND #PWR031
U 1 1 5B0F0185
P 4200 4450
F 0 "#PWR031" H 4200 4200 50  0001 C CNN
F 1 "GND" H 4200 4300 50  0000 C CNN
F 2 "" H 4200 4450 50  0001 C CNN
F 3 "" H 4200 4450 50  0001 C CNN
	1    4200 4450
	1    0    0    -1  
$EndComp
$Comp
L GND #PWR032
U 1 1 5B0F029E
P 3900 3700
F 0 "#PWR032" H 3900 3450 50  0001 C CNN
F 1 "GND" H 3900 3550 50  0000 C CNN
F 2 "" H 3900 3700 50  0001 C CNN
F 3 "" H 3900 3700 50  0001 C CNN
	1    3900 3700
	1    0    0    -1  
$EndComp
$Comp
L C C6
U 1 1 5B0F03BE
P 4550 5000
F 0 "C6" H 4575 5100 50  0000 L CNN
F 1 "10uF" H 4575 4900 50  0000 L CNN
F 2 "Capacitors_SMD:C_0805_HandSoldering" H 4588 4850 50  0001 C CNN
F 3 "" H 4550 5000 50  0001 C CNN
	1    4550 5000
	1    0    0    -1  
$EndComp
$Comp
L C C7
U 1 1 5B0F0474
P 5100 5000
F 0 "C7" H 5125 5100 50  0000 L CNN
F 1 "0.1uF" H 5125 4900 50  0000 L CNN
F 2 "Capacitors_SMD:C_0805_HandSoldering" H 5138 4850 50  0001 C CNN
F 3 "" H 5100 5000 50  0001 C CNN
	1    5100 5000
	1    0    0    -1  
$EndComp
$Comp
L GND #PWR033
U 1 1 5B0F056B
P 4550 5250
F 0 "#PWR033" H 4550 5000 50  0001 C CNN
F 1 "GND" H 4550 5100 50  0000 C CNN
F 2 "" H 4550 5250 50  0001 C CNN
F 3 "" H 4550 5250 50  0001 C CNN
	1    4550 5250
	1    0    0    -1  
$EndComp
$Comp
L GND #PWR034
U 1 1 5B0F0591
P 5100 5250
F 0 "#PWR034" H 5100 5000 50  0001 C CNN
F 1 "GND" H 5100 5100 50  0000 C CNN
F 2 "" H 5100 5250 50  0001 C CNN
F 3 "" H 5100 5250 50  0001 C CNN
	1    5100 5250
	1    0    0    -1  
$EndComp
Text GLabel 4400 4750 0    60   Input ~ 0
USB5V
NoConn ~ 5200 4550
NoConn ~ 5300 4550
NoConn ~ 5400 4550
NoConn ~ 5500 4550
NoConn ~ 5600 4550
NoConn ~ 5700 4550
NoConn ~ 5650 2950
Text GLabel 5450 2800 1    60   Output ~ 0
RTS
Text GLabel 5350 2800 1    60   Input ~ 0
RXD
Text GLabel 5250 2800 1    60   Output ~ 0
TXD
NoConn ~ 5150 2950
Text GLabel 5050 2800 1    60   Output ~ 0
DTR
$Comp
L GND #PWR035
U 1 1 5B0F0CED
P 4800 2950
F 0 "#PWR035" H 4800 2700 50  0001 C CNN
F 1 "GND" H 4800 2800 50  0000 C CNN
F 2 "" H 4800 2950 50  0001 C CNN
F 3 "" H 4800 2950 50  0001 C CNN
	1    4800 2950
	1    0    0    -1  
$EndComp
Wire Wire Line
	2250 3400 2250 2800
Connection ~ 2250 2800
Wire Wire Line
	2000 3000 3000 3000
Wire Wire Line
	2550 3000 2550 3400
Wire Wire Line
	2000 3100 3000 3100
Wire Wire Line
	2850 3100 2850 3400
Wire Wire Line
	2850 3700 2850 3900
Wire Wire Line
	2550 3700 2550 3900
Wire Wire Line
	2250 3700 2250 3900
Wire Wire Line
	1700 3400 1700 3900
Wire Wire Line
	1600 3400 1600 3900
Connection ~ 2850 3100
Wire Wire Line
	3000 2800 2800 2800
Wire Wire Line
	2000 2800 2500 2800
Connection ~ 2550 3000
Wire Wire Line
	4650 3750 4500 3750
Wire Wire Line
	4500 3850 4650 3850
Wire Wire Line
	4100 3950 4650 3950
Wire Wire Line
	4550 3950 4550 4050
Wire Wire Line
	4550 4050 4650 4050
Connection ~ 4550 3950
Wire Wire Line
	4200 4450 4200 4350
Wire Wire Line
	4200 4050 4200 3950
Connection ~ 4200 3950
Wire Wire Line
	4650 3650 3900 3650
Wire Wire Line
	3900 3650 3900 3700
Wire Wire Line
	5100 4550 5100 4850
Wire Wire Line
	4400 4750 5100 4750
Wire Wire Line
	4550 4750 4550 4850
Connection ~ 5100 4750
Connection ~ 4550 4750
Wire Wire Line
	4550 5150 4550 5250
Wire Wire Line
	5100 5150 5100 5250
Wire Wire Line
	4950 2950 4950 2800
Wire Wire Line
	4950 2800 4800 2800
Wire Wire Line
	4800 2800 4800 2950
Wire Wire Line
	5050 2950 5050 2800
Wire Wire Line
	5250 2800 5250 2950
Wire Wire Line
	5350 2800 5350 2950
Wire Wire Line
	5450 2800 5450 2950
Text GLabel 1850 4800 0    60   Input ~ 0
U0TXD0
Text GLabel 1850 5000 0    60   Output ~ 0
U0RXD0
$Comp
L R R14
U 1 1 5B0F148F
P 2250 4800
F 0 "R14" V 2330 4800 50  0000 C CNN
F 1 "0R" V 2250 4800 50  0000 C CNN
F 2 "Resistors_SMD:R_0805_HandSoldering" V 2180 4800 50  0001 C CNN
F 3 "" H 2250 4800 50  0001 C CNN
	1    2250 4800
	0    1    1    0   
$EndComp
$Comp
L R R15
U 1 1 5B0F15CB
P 2250 5000
F 0 "R15" V 2330 5000 50  0000 C CNN
F 1 "0R" V 2250 5000 50  0000 C CNN
F 2 "Resistors_SMD:R_0805_HandSoldering" V 2180 5000 50  0001 C CNN
F 3 "" H 2250 5000 50  0001 C CNN
	1    2250 5000
	0    1    1    0   
$EndComp
Wire Wire Line
	1850 4800 2100 4800
Wire Wire Line
	2100 5000 1850 5000
Wire Wire Line
	2400 4800 2650 4800
Wire Wire Line
	2400 5000 2650 5000
Text GLabel 2650 4800 2    60   Output ~ 0
RXD
Text GLabel 2650 5000 2    60   Input ~ 0
TXD
$Comp
L Q_NPN_BEC Q5
U 1 1 5B0F231D
P 2600 5650
F 0 "Q5" H 2800 5700 50  0000 L CNN
F 1 "S8050" H 2800 5600 50  0000 L CNN
F 2 "TO_SOT_Packages_SMD:SOT-23_Handsoldering" H 2800 5750 50  0001 C CNN
F 3 "" H 2600 5650 50  0001 C CNN
	1    2600 5650
	1    0    0    -1  
$EndComp
$Comp
L Q_NPN_BEC Q6
U 1 1 5B0F23F5
P 2600 6500
F 0 "Q6" H 2800 6550 50  0000 L CNN
F 1 "S8050" H 2800 6450 50  0000 L CNN
F 2 "TO_SOT_Packages_SMD:SOT-23_Handsoldering" H 2800 6600 50  0001 C CNN
F 3 "" H 2600 6500 50  0001 C CNN
	1    2600 6500
	1    0    0    1   
$EndComp
$Comp
L R R16
U 1 1 5B0F2571
P 2100 5650
F 0 "R16" V 2180 5650 50  0000 C CNN
F 1 "10K" V 2100 5650 50  0000 C CNN
F 2 "Resistors_SMD:R_0805_HandSoldering" V 2030 5650 50  0001 C CNN
F 3 "" H 2100 5650 50  0001 C CNN
	1    2100 5650
	0    1    1    0   
$EndComp
$Comp
L R R17
U 1 1 5B0F27E9
P 2100 6500
F 0 "R17" V 2180 6500 50  0000 C CNN
F 1 "10K" V 2100 6500 50  0000 C CNN
F 2 "Resistors_SMD:R_0805_HandSoldering" V 2030 6500 50  0001 C CNN
F 3 "" H 2100 6500 50  0001 C CNN
	1    2100 6500
	0    1    1    0   
$EndComp
Wire Wire Line
	2250 6500 2400 6500
Wire Wire Line
	2400 5650 2250 5650
Wire Wire Line
	1650 5650 1950 5650
Connection ~ 1850 5650
Wire Wire Line
	1650 6500 1950 6500
Wire Wire Line
	2700 5850 2700 6000
Wire Wire Line
	2700 6000 1800 6000
Wire Wire Line
	1800 6000 1800 6500
Connection ~ 1800 6500
Wire Wire Line
	2700 6150 1850 6150
Wire Wire Line
	1850 6150 1850 5650
Wire Wire Line
	2700 6150 2700 6300
Wire Wire Line
	2700 5450 2700 5350
Wire Wire Line
	2700 5350 2900 5350
Wire Wire Line
	2700 6700 2700 6800
Wire Wire Line
	2700 6800 2900 6800
Text GLabel 1650 6500 0    60   Input ~ 0
RTS
Text GLabel 1650 5650 0    60   Input ~ 0
DTR
Text GLabel 2900 6800 2    60   Output ~ 0
IO0
Text GLabel 2900 5350 2    60   Output ~ 0
ESP_RESET
Text HLabel 2850 1350 2    60   Output ~ 0
USB5V
Text GLabel 2450 1350 0    60   Input ~ 0
USB5V
Wire Wire Line
	2450 1350 2850 1350
Text HLabel 2900 1500 0    60   Input ~ 0
GND
$Comp
L GND #PWR036
U 1 1 5B1087D4
P 3100 1600
F 0 "#PWR036" H 3100 1350 50  0001 C CNN
F 1 "GND" H 3100 1450 50  0000 C CNN
F 2 "" H 3100 1600 50  0001 C CNN
F 3 "" H 3100 1600 50  0001 C CNN
	1    3100 1600
	1    0    0    -1  
$EndComp
Wire Wire Line
	2900 1500 3100 1500
Wire Wire Line
	3100 1500 3100 1600
Text HLabel 3950 1150 0    60   Input ~ 0
U0TXD0
Text GLabel 4300 1150 2    60   Output ~ 0
U0TXD0
Text GLabel 4300 1300 2    60   Input ~ 0
U0RXD0
Wire Wire Line
	3950 1150 4300 1150
Text HLabel 3950 1300 0    60   Output ~ 0
U0RXD0
Wire Wire Line
	4300 1300 3950 1300
Text GLabel 4300 1550 2    60   Input ~ 0
ESP_RESET
Text HLabel 3950 1550 0    60   Output ~ 0
ESP_RESET
Wire Wire Line
	3950 1550 4300 1550
Text GLabel 4300 1700 2    60   Input ~ 0
IO0
Text HLabel 3950 1700 0    60   Output ~ 0
IO0
Wire Wire Line
	3950 1700 4300 1700
Text HLabel 2350 1200 0    60   Input ~ 0
3.3V
Text GLabel 2750 1200 2    60   Output ~ 0
3.3V
Wire Wire Line
	2750 1200 2350 1200
Wire Notes Line
	11100 550  11100 6000
Wire Notes Line
	7000 550  7000 7700
Wire Notes Line
	7000 7700 550  7700
Wire Notes Line
	550  7700 550  550 
Wire Notes Line
	7000 2100 550  2100
Text Notes 600  700  0    60   ~ 0
REFERENCIAS
Text Notes 600  2250 0    60   ~ 0
CONVERSOR UART-USB
Wire Notes Line
	7100 6000 7100 550 
Wire Notes Line
	550  550  7000 550 
Wire Notes Line
	7100 550  11100 550 
Wire Notes Line
	11100 6000 7100 6000
NoConn ~ 5550 2950
$EndSCHEMATC
