EESchema Schematic File Version 2
LIBS:power
LIBS:device
LIBS:transistors
LIBS:conn
LIBS:linear
LIBS:regul
LIBS:74xx
LIBS:cmos4000
LIBS:adc-dac
LIBS:memory
LIBS:xilinx
LIBS:microcontrollers
LIBS:dsp
LIBS:microchip
LIBS:analog_switches
LIBS:motorola
LIBS:texas
LIBS:intel
LIBS:audio
LIBS:interface
LIBS:digital-audio
LIBS:philips
LIBS:display
LIBS:cypress
LIBS:siliconi
LIBS:opto
LIBS:atmel
LIBS:contrib
LIBS:valves
LIBS:Adafruit BME280
LIBS:ESP32-PICO-D4
LIBS:FXAS21002C+FXOS8700CQ
LIBS:Adafruit MicroUSB Lipo
LIBS:MPU6050
LIBS:TPS63001
LIBS:Adafruit VL53L0X
LIBS:cp2102
LIBS:switches
LIBS:motors
LIBS:MPU-9250
LIBS:ESP-WROOM-32
LIBS:uQA3-cache
EELAYER 25 0
EELAYER END
$Descr A4 11693 8268
encoding utf-8
Sheet 1 5
Title "Microprocesador"
Date "2018-07-18"
Rev ""
Comp "Claudio J. Paz"
Comment1 "Cuadrotor aéreo no tripulado"
Comment2 "de dimensiones pequeñas"
Comment3 "y estructura abierta uQA3"
Comment4 "2018"
$EndDescr
$Comp
L C C4
U 1 1 5B0EF981
P 5350 2850
F 0 "C4" H 5375 2950 50  0000 L CNN
F 1 "0.1uF" H 5375 2750 50  0000 L CNN
F 2 "Capacitors_SMD:C_0805_HandSoldering" H 5388 2700 50  0001 C CNN
F 3 "" H 5350 2850 50  0001 C CNN
	1    5350 2850
	0    -1   -1   0   
$EndComp
Text GLabel 5250 3200 2    60   Input ~ 0
3.3V
Text GLabel 3050 3700 0    60   Output ~ 0
U0TXD0
Text GLabel 3050 3800 0    60   Input ~ 0
U0RXD0
$Comp
L GND #PWR01
U 1 1 5B0F0476
P 5600 2850
F 0 "#PWR01" H 5600 2600 50  0001 C CNN
F 1 "GND" H 5600 2700 50  0000 C CNN
F 2 "" H 5600 2850 50  0001 C CNN
F 3 "" H 5600 2850 50  0001 C CNN
	1    5600 2850
	0    -1   -1   0   
$EndComp
$Comp
L GND #PWR02
U 1 1 5B0F0496
P 5100 5350
F 0 "#PWR02" H 5100 5100 50  0001 C CNN
F 1 "GND" H 5100 5200 50  0000 C CNN
F 2 "" H 5100 5350 50  0001 C CNN
F 3 "" H 5100 5350 50  0001 C CNN
	1    5100 5350
	-1   0    0    -1  
$EndComp
$Comp
L R R1
U 1 1 5B0F0B73
P 2200 2350
F 0 "R1" V 2280 2350 50  0000 C CNN
F 1 "10K" V 2200 2350 50  0000 C CNN
F 2 "Resistors_SMD:R_0805_HandSoldering" V 2130 2350 50  0001 C CNN
F 3 "" H 2200 2350 50  0001 C CNN
	1    2200 2350
	1    0    0    -1  
$EndComp
$Comp
L C C1
U 1 1 5B0F0C65
P 2200 2850
F 0 "C1" H 2225 2950 50  0000 L CNN
F 1 "0.1uF" H 2225 2750 50  0000 L CNN
F 2 "Capacitors_SMD:C_0805_HandSoldering" H 2238 2700 50  0001 C CNN
F 3 "" H 2200 2850 50  0001 C CNN
	1    2200 2850
	1    0    0    -1  
$EndComp
Text GLabel 2100 2100 0    60   Input ~ 0
3.3V
$Comp
L GND #PWR03
U 1 1 5B0F1F55
P 2200 3100
F 0 "#PWR03" H 2200 2850 50  0001 C CNN
F 1 "GND" H 2200 2950 50  0000 C CNN
F 2 "" H 2200 3100 50  0001 C CNN
F 3 "" H 2200 3100 50  0001 C CNN
	1    2200 3100
	1    0    0    -1  
$EndComp
$Comp
L SW_Push SW1
U 1 1 5B0F2159
P 1850 2850
F 0 "SW1" H 1900 2950 50  0000 L CNN
F 1 "RESET" H 1850 2790 50  0000 C CNN
F 2 "Buttons_Switches_SMD:SW_SPST_EVQP2" H 1850 3050 50  0001 C CNN
F 3 "" H 1850 3050 50  0001 C CNN
	1    1850 2850
	0    -1   -1   0   
$EndComp
$Comp
L GND #PWR04
U 1 1 5B0F233C
P 1850 3100
F 0 "#PWR04" H 1850 2850 50  0001 C CNN
F 1 "GND" H 1850 2950 50  0000 C CNN
F 2 "" H 1850 3100 50  0001 C CNN
F 3 "" H 1850 3100 50  0001 C CNN
	1    1850 3100
	1    0    0    -1  
$EndComp
Text GLabel 1600 2600 0    60   Input ~ 0
ESP_RESET
Text GLabel 8400 3550 0    60   Input ~ 0
USB5V
Text GLabel 8400 3700 0    60   Input ~ 0
BATERIA
Text GLabel 9850 3550 2    60   Output ~ 0
3.3V
Text GLabel 9850 3700 2    60   Output ~ 0
2.8V
$Comp
L GND #PWR05
U 1 1 5B0EFA8D
P 8400 4000
F 0 "#PWR05" H 8400 3750 50  0001 C CNN
F 1 "GND" H 8400 3850 50  0000 C CNN
F 2 "" H 8400 4000 50  0001 C CNN
F 3 "" H 8400 4000 50  0001 C CNN
	1    8400 4000
	1    0    0    -1  
$EndComp
$Sheet
S 8500 950  1100 750 
U 5B0F0299
F0 "Driver" 60
F1 "Driver.sch" 60
F2 "BATERIA" I L 8500 1100 60 
F3 "3.3V" I L 8500 1250 60 
F4 "GND" I L 8500 1400 60 
F5 "PWM0" I R 9600 1100 60 
F6 "PWM1" I R 9600 1250 60 
F7 "PWM2" I R 9600 1400 60 
F8 "PWM3" I R 9600 1550 60 
$EndSheet
Text GLabel 8350 1100 0    60   Input ~ 0
BATERIA
Text GLabel 8350 1250 0    60   Input ~ 0
3.3V
$Comp
L GND #PWR06
U 1 1 5B103AAD
P 8350 1600
F 0 "#PWR06" H 8350 1350 50  0001 C CNN
F 1 "GND" H 8350 1450 50  0000 C CNN
F 2 "" H 8350 1600 50  0001 C CNN
F 3 "" H 8350 1600 50  0001 C CNN
	1    8350 1600
	1    0    0    -1  
$EndComp
Text GLabel 8150 4750 0    60   Input ~ 0
3.3V
Text GLabel 8150 4900 0    60   Input ~ 0
2.8V
Text GLabel 8150 5050 0    60   BiDi ~ 0
SENSORES_SDA
Text GLabel 8150 5200 0    60   BiDi ~ 0
SENSORES_SCL
$Comp
L GND #PWR07
U 1 1 5B10A5A9
P 8150 5650
F 0 "#PWR07" H 8150 5400 50  0001 C CNN
F 1 "GND" H 8150 5500 50  0000 C CNN
F 2 "" H 8150 5650 50  0001 C CNN
F 3 "" H 8150 5650 50  0001 C CNN
	1    8150 5650
	1    0    0    -1  
$EndComp
Text GLabel 10150 5250 2    60   Input ~ 0
BARO_ADR
Text GLabel 10150 5550 2    60   Input ~ 0
GPIO_LASER
Text GLabel 9750 1100 2    60   Input ~ 0
PWM_0
Text GLabel 9750 1250 2    60   Input ~ 0
PWM_1
Text GLabel 9750 1400 2    60   Input ~ 0
PWM_2
Text GLabel 9750 1550 2    60   Input ~ 0
PWM_3
Text GLabel 5250 3600 2    60   Input ~ 0
IMU_INT1
Text GLabel 3050 4700 0    60   Input ~ 0
FSYNC
Text GLabel 5250 3700 2    60   BiDi ~ 0
SENSORES_CS
Text GLabel 5250 4500 2    60   Input ~ 0
XSHUT
Text GLabel 5250 4600 2    60   Output ~ 0
GPIO_LASER
Text GLabel 5250 3400 2    60   Output ~ 0
BARO_ADR
Text GLabel 5250 3800 2    60   BiDi ~ 0
SENSORES_SCL
Text GLabel 3050 4800 0    60   Output ~ 0
PWM_0
Text GLabel 5250 4400 2    60   Output ~ 0
PWM_1
Text GLabel 3050 5000 0    60   Output ~ 0
PWM_2
Text GLabel 5250 4300 2    60   Output ~ 0
PWM_3
$Sheet
S 8500 2200 1100 650 
U 5B1164DF
F0 "Prog" 60
F1 "Prog.sch" 60
F2 "USB5V" O L 8500 2350 60 
F3 "GND" I L 8500 2700 60 
F4 "U0TXD0" I R 9600 2350 60 
F5 "U0RXD0" O R 9600 2450 60 
F6 "ESP_RESET" O R 9600 2600 60 
F7 "IO0" O R 9600 2700 60 
F8 "3.3V" I L 8500 2500 60 
$EndSheet
Text GLabel 8350 2350 0    60   Output ~ 0
USB5V
Text GLabel 8350 2500 0    60   Input ~ 0
3.3V
$Comp
L GND #PWR08
U 1 1 5B115FFE
P 8350 2850
F 0 "#PWR08" H 8350 2600 50  0001 C CNN
F 1 "GND" H 8350 2700 50  0000 C CNN
F 2 "" H 8350 2850 50  0001 C CNN
F 3 "" H 8350 2850 50  0001 C CNN
	1    8350 2850
	1    0    0    -1  
$EndComp
Text GLabel 9750 2350 2    60   Input ~ 0
U0TXD0
Text GLabel 9750 2450 2    60   Output ~ 0
U0RXD0
Text GLabel 9750 2600 2    60   Output ~ 0
ESP_RESET
Text GLabel 9750 2700 2    60   Output ~ 0
BOOT
$Comp
L SW_Push SW2
U 1 1 5B11C541
P 2000 4950
F 0 "SW2" H 2050 5050 50  0000 L CNN
F 1 "BOOT" H 2000 4890 50  0000 C CNN
F 2 "Buttons_Switches_SMD:SW_SPST_EVQP2" H 2000 5150 50  0001 C CNN
F 3 "" H 2000 5150 50  0001 C CNN
	1    2000 4950
	0    1    -1   0   
$EndComp
$Comp
L C C2
U 1 1 5B11CCE2
P 1700 4950
F 0 "C2" H 1725 5050 50  0000 L CNN
F 1 "0.1uF" H 1725 4850 50  0000 L CNN
F 2 "Capacitors_SMD:C_0805_HandSoldering" H 1738 4800 50  0001 C CNN
F 3 "" H 1700 4950 50  0001 C CNN
	1    1700 4950
	-1   0    0    -1  
$EndComp
$Comp
L GND #PWR09
U 1 1 5B11CE06
P 2000 5250
F 0 "#PWR09" H 2000 5000 50  0001 C CNN
F 1 "GND" H 2000 5100 50  0000 C CNN
F 2 "" H 2000 5250 50  0001 C CNN
F 3 "" H 2000 5250 50  0001 C CNN
	1    2000 5250
	-1   0    0    -1  
$EndComp
$Comp
L GND #PWR010
U 1 1 5B11D7A7
P 1700 5250
F 0 "#PWR010" H 1700 5000 50  0001 C CNN
F 1 "GND" H 1700 5100 50  0000 C CNN
F 2 "" H 1700 5250 50  0001 C CNN
F 3 "" H 1700 5250 50  0001 C CNN
	1    1700 5250
	-1   0    0    -1  
$EndComp
Text GLabel 1550 4600 0    60   Input ~ 0
BOOT
$Sheet
S 8550 3400 1150 600 
U 5B0EDE2F
F0 "Power" 60
F1 "Power.sch" 60
F2 "USB5V" I L 8550 3550 60 
F3 "BATERIA" I L 8550 3700 60 
F4 "3.3V" O R 9700 3550 60 
F5 "GND" I L 8550 3850 60 
F6 "2.8V" O R 9700 3700 60 
$EndSheet
$Sheet
S 8300 4600 1700 1050
U 5B0F02B8
F0 "Sensors" 60
F1 "Sensors.sch" 60
F2 "3.3V" I L 8300 4750 60 
F3 "GND" I L 8300 5500 60 
F4 "2.8V" I L 8300 4900 60 
F5 "GPIO_LASER" I R 10000 5550 60 
F6 "SENSORES_SDA" B L 8300 5050 60 
F7 "SENSORES_SCL" B L 8300 5200 60 
F8 "IMU_INT1" O R 10000 4750 60 
F9 "BARO_ADR" I R 10000 5250 60 
F10 "XSHUT" I R 10000 5400 60 
F11 "SENSORES_CS" B L 8300 5350 60 
F12 "FSYNC" O R 10000 4950 60 
$EndSheet
Text GLabel 10150 5400 2    60   Output ~ 0
XSHUT
Text GLabel 10150 4750 2    60   Output ~ 0
IMU_INT1
Text GLabel 8150 5350 0    60   BiDi ~ 0
SENSORES_CS
Text GLabel 10150 4950 2    60   Output ~ 0
FSYNC
$Comp
L ESP-WROOM-32 U1
U 1 1 5B117575
P 4050 4200
F 0 "U1" H 3448 5324 50  0000 L BNN
F 1 "ESP-WROOM-32" H 3447 2975 50  0000 L BNN
F 2 "ESP32:MODULE_ESP-WROOM-32" H 4050 4200 50  0001 L BNN
F 3 "4.53 USD" H 4050 4200 50  0001 L BNN
F 4 "ESP-WROOM-32" H 4050 4200 50  0001 L BNN "Campo4"
F 5 "Module: combo; GPIO, I2C x2, I2S x2, SDIO, SPI x3, UART x3; 19.5dBm" H 4050 4200 50  0001 L BNN "Campo5"
F 6 "Warning" H 4050 4200 50  0001 L BNN "Campo6"
F 7 "Module Espressif Systems" H 4050 4200 50  0001 L BNN "Campo7"
F 8 "Olimex LTD" H 4050 4200 50  0001 L BNN "Campo8"
	1    4050 4200
	1    0    0    -1  
$EndComp
$Comp
L Conn_01x02 J1
U 1 1 5B12D37B
P 1100 1250
F 0 "J1" H 1100 1350 50  0000 C CNN
F 1 "BATERIA" H 1100 1050 50  0000 C CNN
F 2 "Connectors_Molex:Molex_KK-6410-02_02x2.54mm_Straight" H 1100 1250 50  0001 C CNN
F 3 "" H 1100 1250 50  0001 C CNN
	1    1100 1250
	-1   0    0    -1  
$EndComp
Text GLabel 1500 1250 2    60   Output ~ 0
BATERIA
$Comp
L GND #PWR011
U 1 1 5B12E690
P 1500 1500
F 0 "#PWR011" H 1500 1250 50  0001 C CNN
F 1 "GND" H 1500 1350 50  0000 C CNN
F 2 "" H 1500 1500 50  0001 C CNN
F 3 "" H 1500 1500 50  0001 C CNN
	1    1500 1500
	1    0    0    -1  
$EndComp
Text GLabel 3050 4900 0    60   BiDi ~ 0
SENSORES_SDA
$Comp
L C C3
U 1 1 5B1332D9
P 5350 2500
F 0 "C3" H 5375 2600 50  0000 L CNN
F 1 "22uF" H 5375 2400 50  0000 L CNN
F 2 "Capacitors_SMD:C_0805_HandSoldering" H 5388 2350 50  0001 C CNN
F 3 "" H 5350 2500 50  0001 C CNN
	1    5350 2500
	0    -1   -1   0   
$EndComp
$Comp
L GND #PWR012
U 1 1 5B1333C0
P 5600 2500
F 0 "#PWR012" H 5600 2250 50  0001 C CNN
F 1 "GND" H 5600 2350 50  0000 C CNN
F 2 "" H 5600 2500 50  0001 C CNN
F 3 "" H 5600 2500 50  0001 C CNN
	1    5600 2500
	0    -1   -1   0   
$EndComp
Wire Wire Line
	3050 3800 3250 3800
Wire Wire Line
	3050 3700 3250 3700
Wire Wire Line
	4850 5200 5100 5200
Wire Wire Line
	5100 5200 5100 5350
Wire Wire Line
	5600 2850 5500 2850
Wire Wire Line
	2200 2100 2200 2200
Wire Wire Line
	2200 2500 2200 2700
Connection ~ 2200 2600
Wire Wire Line
	2200 3100 2200 3000
Wire Wire Line
	1850 2600 1850 2650
Wire Wire Line
	1850 3100 1850 3050
Connection ~ 1850 2600
Wire Wire Line
	2100 2100 2200 2100
Wire Wire Line
	1600 2600 2650 2600
Wire Wire Line
	9850 3700 9700 3700
Wire Wire Line
	9850 3550 9700 3550
Wire Wire Line
	8550 3550 8400 3550
Wire Wire Line
	8400 3700 8550 3700
Wire Wire Line
	8550 3850 8400 3850
Wire Wire Line
	8400 3850 8400 4000
Wire Wire Line
	8500 1400 8350 1400
Wire Wire Line
	8350 1400 8350 1600
Wire Wire Line
	8500 1250 8350 1250
Wire Wire Line
	8500 1100 8350 1100
Wire Wire Line
	8300 5500 8150 5500
Wire Wire Line
	8150 5500 8150 5650
Wire Wire Line
	8300 5200 8150 5200
Wire Wire Line
	8150 5050 8300 5050
Wire Wire Line
	8300 4900 8150 4900
Wire Wire Line
	8150 4750 8300 4750
Wire Wire Line
	10000 4750 10150 4750
Wire Wire Line
	10000 4950 10150 4950
Wire Wire Line
	10000 5250 10150 5250
Wire Wire Line
	10000 5400 10150 5400
Wire Wire Line
	10000 5550 10150 5550
Wire Wire Line
	8300 5350 8150 5350
Wire Wire Line
	9750 1100 9600 1100
Wire Wire Line
	9750 1250 9600 1250
Wire Wire Line
	9600 1400 9750 1400
Wire Wire Line
	9750 1550 9600 1550
Wire Wire Line
	8500 2350 8350 2350
Wire Wire Line
	8350 2500 8500 2500
Wire Wire Line
	8500 2700 8350 2700
Wire Wire Line
	8350 2700 8350 2850
Wire Wire Line
	9750 2350 9600 2350
Wire Wire Line
	9750 2450 9600 2450
Wire Wire Line
	9750 2600 9600 2600
Wire Wire Line
	9750 2700 9600 2700
Wire Wire Line
	1550 4600 3250 4600
Connection ~ 2000 4600
Wire Wire Line
	1700 5100 1700 5250
Wire Wire Line
	2000 5150 2000 5250
Connection ~ 1700 4600
Wire Wire Line
	4850 3200 5250 3200
Wire Wire Line
	5200 2850 5050 2850
Wire Wire Line
	5050 2500 5050 3200
Connection ~ 5050 3200
Wire Wire Line
	2000 4600 2000 4750
Wire Wire Line
	5250 4300 4850 4300
Wire Wire Line
	3250 5000 3050 5000
Wire Wire Line
	3050 4800 3250 4800
Wire Wire Line
	1500 1250 1300 1250
Wire Wire Line
	1300 1350 1500 1350
Wire Wire Line
	1500 1350 1500 1500
Wire Wire Line
	3050 4700 3250 4700
Wire Wire Line
	5250 3600 4850 3600
Wire Wire Line
	5600 2500 5500 2500
Wire Wire Line
	5200 2500 5050 2500
Connection ~ 5050 2850
Wire Wire Line
	5250 4500 4850 4500
Wire Wire Line
	5250 4400 4850 4400
Wire Wire Line
	5250 3400 4850 3400
Wire Wire Line
	5250 3800 4850 3800
Wire Wire Line
	3050 4900 3250 4900
NoConn ~ 3250 3900
NoConn ~ 3250 4000
NoConn ~ 3250 4100
NoConn ~ 3250 4200
NoConn ~ 3250 4300
NoConn ~ 3250 4400
Wire Wire Line
	5250 4600 4850 4600
Wire Wire Line
	5250 3700 4850 3700
$Comp
L R R6
U 1 1 5B15CCF7
P 6000 4400
F 0 "R6" V 6080 4400 50  0000 C CNN
F 1 "330" V 6000 4400 50  0000 C CNN
F 2 "Resistors_SMD:R_0805_HandSoldering" V 5930 4400 50  0001 C CNN
F 3 "" H 6000 4400 50  0001 C CNN
	1    6000 4400
	1    0    0    1   
$EndComp
$Comp
L LED D1
U 1 1 5B15CFE1
P 6000 4900
F 0 "D1" H 6000 5000 50  0000 C CNN
F 1 "LED" H 6000 4800 50  0000 C CNN
F 2 "LEDs:LED_0805_HandSoldering" H 6000 4900 50  0001 C CNN
F 3 "" H 6000 4900 50  0001 C CNN
	1    6000 4900
	0    1    -1   0   
$EndComp
Wire Wire Line
	6000 4550 6000 4750
$Comp
L R R7
U 1 1 5B15E485
P 6300 4400
F 0 "R7" V 6380 4400 50  0000 C CNN
F 1 "330" V 6300 4400 50  0000 C CNN
F 2 "Resistors_SMD:R_0805_HandSoldering" V 6230 4400 50  0001 C CNN
F 3 "" H 6300 4400 50  0001 C CNN
	1    6300 4400
	1    0    0    1   
$EndComp
$Comp
L LED D4
U 1 1 5B15E48B
P 6300 4900
F 0 "D4" H 6300 5000 50  0000 C CNN
F 1 "LED" H 6300 4800 50  0000 C CNN
F 2 "LEDs:LED_0805_HandSoldering" H 6300 4900 50  0001 C CNN
F 3 "" H 6300 4900 50  0001 C CNN
	1    6300 4900
	0    1    -1   0   
$EndComp
Wire Wire Line
	6300 4550 6300 4750
Wire Wire Line
	4850 3900 6300 3900
Wire Wire Line
	4850 4000 6000 4000
Wire Wire Line
	6300 3900 6300 4250
Wire Wire Line
	6000 4000 6000 4250
$Comp
L GND #PWR013
U 1 1 5B15EF3B
P 6000 5350
F 0 "#PWR013" H 6000 5100 50  0001 C CNN
F 1 "GND" H 6000 5200 50  0000 C CNN
F 2 "" H 6000 5350 50  0001 C CNN
F 3 "" H 6000 5350 50  0001 C CNN
	1    6000 5350
	-1   0    0    -1  
$EndComp
Wire Wire Line
	6000 5350 6000 5050
$Comp
L GND #PWR014
U 1 1 5B15F375
P 6300 5350
F 0 "#PWR014" H 6300 5100 50  0001 C CNN
F 1 "GND" H 6300 5200 50  0000 C CNN
F 2 "" H 6300 5350 50  0001 C CNN
F 3 "" H 6300 5350 50  0001 C CNN
	1    6300 5350
	-1   0    0    -1  
$EndComp
Wire Wire Line
	6300 5350 6300 5050
$Comp
L R R8
U 1 1 5B15FE80
P 6600 4400
F 0 "R8" V 6680 4400 50  0000 C CNN
F 1 "330" V 6600 4400 50  0000 C CNN
F 2 "Resistors_SMD:R_0805_HandSoldering" V 6530 4400 50  0001 C CNN
F 3 "" H 6600 4400 50  0001 C CNN
	1    6600 4400
	1    0    0    1   
$EndComp
$Comp
L LED D5
U 1 1 5B15FE86
P 6600 4900
F 0 "D5" H 6600 5000 50  0000 C CNN
F 1 "LED" H 6600 4800 50  0000 C CNN
F 2 "LEDs:LED_0805_HandSoldering" H 6600 4900 50  0001 C CNN
F 3 "" H 6600 4900 50  0001 C CNN
	1    6600 4900
	0    1    -1   0   
$EndComp
Wire Wire Line
	6600 4550 6600 4750
$Comp
L R R11
U 1 1 5B15FE8D
P 5700 5250
F 0 "R11" V 5780 5250 50  0000 C CNN
F 1 "330" V 5700 5250 50  0000 C CNN
F 2 "Resistors_SMD:R_0805_HandSoldering" V 5630 5250 50  0001 C CNN
F 3 "" H 5700 5250 50  0001 C CNN
	1    5700 5250
	1    0    0    1   
$EndComp
$Comp
L LED D6
U 1 1 5B15FE93
P 5700 5750
F 0 "D6" H 5700 5850 50  0000 C CNN
F 1 "LED" H 5700 5650 50  0000 C CNN
F 2 "LEDs:LED_0805_HandSoldering" H 5700 5750 50  0001 C CNN
F 3 "" H 5700 5750 50  0001 C CNN
	1    5700 5750
	0    1    -1   0   
$EndComp
Wire Wire Line
	5700 5400 5700 5600
Wire Wire Line
	6600 3500 6600 4250
$Comp
L GND #PWR015
U 1 1 5B15FE9C
P 6600 5350
F 0 "#PWR015" H 6600 5100 50  0001 C CNN
F 1 "GND" H 6600 5200 50  0000 C CNN
F 2 "" H 6600 5350 50  0001 C CNN
F 3 "" H 6600 5350 50  0001 C CNN
	1    6600 5350
	-1   0    0    -1  
$EndComp
Wire Wire Line
	6600 5350 6600 5050
$Comp
L GND #PWR016
U 1 1 5B15FEA3
P 5700 6200
F 0 "#PWR016" H 5700 5950 50  0001 C CNN
F 1 "GND" H 5700 6050 50  0000 C CNN
F 2 "" H 5700 6200 50  0001 C CNN
F 3 "" H 5700 6200 50  0001 C CNN
	1    5700 6200
	-1   0    0    -1  
$EndComp
Wire Wire Line
	5700 6200 5700 5900
Wire Wire Line
	4850 3500 6600 3500
Wire Wire Line
	4850 4800 5700 4800
Wire Wire Line
	5700 4800 5700 5100
$Comp
L R R28
U 1 1 5B16BC7F
P 1750 3500
F 0 "R28" V 1830 3500 50  0000 C CNN
F 1 "10k" V 1750 3500 50  0000 C CNN
F 2 "Resistors_SMD:R_0805_HandSoldering" V 1680 3500 50  0001 C CNN
F 3 "" H 1750 3500 50  0001 C CNN
	1    1750 3500
	0    1    1    0   
$EndComp
Text GLabel 1450 3500 0    60   Input ~ 0
BATERIA
Wire Wire Line
	1600 3500 1450 3500
Wire Wire Line
	3250 3400 2650 3400
Wire Wire Line
	2650 3400 2650 2600
Wire Notes Line
	550  550  550  7700
Wire Notes Line
	550  7700 7000 7700
Wire Notes Line
	7000 7700 7000 550 
Wire Notes Line
	11100 550  11100 6000
Text Notes 600  700  0    60   ~ 0
ESP32-WROOM
Text Notes 7200 4450 0    60   ~ 0
SENSORES
Text Notes 7150 3300 0    60   ~ 0
FUENTE DE ALIMENTACIÓN
Text Notes 7150 2100 0    60   ~ 0
PROGRAMACIÓN
Text Notes 7150 700  0    60   ~ 0
DRIVER DE MOTORES
Wire Notes Line
	7100 6000 7100 550 
Wire Notes Line
	7000 550  550  550 
Wire Notes Line
	7100 550  11100 550 
Wire Notes Line
	11100 6000 7100 6000
Wire Notes Line
	7100 4300 11100 4300
Wire Notes Line
	7100 3150 11100 3150
Wire Notes Line
	7100 1950 11100 1950
Wire Wire Line
	3250 3500 1900 3500
$Comp
L Conn_01x04 J3
U 1 1 5B4D846F
P 3000 6000
F 0 "J3" H 3000 6200 50  0000 C CNN
F 1 "IO" H 3000 5700 50  0000 C CNN
F 2 "Pin_Headers:Pin_Header_Straight_1x04_Pitch1.27mm_SMD_Pin1Right" H 3000 6000 50  0001 C CNN
F 3 "" H 3000 6000 50  0001 C CNN
	1    3000 6000
	-1   0    0    -1  
$EndComp
Text GLabel 5250 4900 2    60   Output ~ 0
IO34
Text GLabel 5250 5000 2    60   Output ~ 0
IO35
Text GLabel 5250 4700 2    60   Output ~ 0
IO32
Wire Wire Line
	5250 4700 4850 4700
Wire Wire Line
	4850 4900 5250 4900
Wire Wire Line
	5250 5000 4850 5000
Text GLabel 5250 4200 2    60   Output ~ 0
IO22
Text GLabel 5250 4100 2    60   Output ~ 0
IO21
Wire Wire Line
	5250 4200 4850 4200
Wire Wire Line
	5250 4100 4850 4100
Text GLabel 3050 3600 0    60   Output ~ 0
IO39
Wire Wire Line
	3250 3600 3050 3600
Text GLabel 3450 6000 2    60   Input ~ 0
IO34
Wire Wire Line
	3450 6000 3200 6000
Text GLabel 3450 6100 2    60   Input ~ 0
IO35
Text GLabel 3450 6200 2    60   Input ~ 0
IO32
Text GLabel 3450 5900 2    60   Input ~ 0
IO39
Wire Wire Line
	3450 5900 3200 5900
Wire Wire Line
	3200 6100 3450 6100
Wire Wire Line
	3450 6200 3200 6200
$Comp
L Conn_01x02 J4
U 1 1 5B4DB9DC
P 4050 5900
F 0 "J4" H 4050 6000 50  0000 C CNN
F 1 "IO" H 4050 5700 50  0000 C CNN
F 2 "Pin_Headers:Pin_Header_Straight_1x02_Pitch1.27mm_SMD_Pin1Right" H 4050 5900 50  0001 C CNN
F 3 "" H 4050 5900 50  0001 C CNN
	1    4050 5900
	-1   0    0    -1  
$EndComp
Text GLabel 4500 5900 2    60   Input ~ 0
IO21
Text GLabel 4500 6000 2    60   Input ~ 0
IO22
Wire Wire Line
	4250 6000 4500 6000
Wire Wire Line
	4250 5900 4500 5900
Wire Wire Line
	1700 4800 1700 4600
$EndSCHEMATC
